%TF.GenerationSoftware,KiCad,Pcbnew,(6.0.4)*%
%TF.CreationDate,2022-06-14T16:48:53-07:00*%
%TF.ProjectId,colorlight_breakout_io_buffer,636f6c6f-726c-4696-9768-745f62726561,rev?*%
%TF.SameCoordinates,Original*%
%TF.FileFunction,Soldermask,Bot*%
%TF.FilePolarity,Negative*%
%FSLAX46Y46*%
G04 Gerber Fmt 4.6, Leading zero omitted, Abs format (unit mm)*
G04 Created by KiCad (PCBNEW (6.0.4)) date 2022-06-14 16:48:53*
%MOMM*%
%LPD*%
G01*
G04 APERTURE LIST*
%ADD10R,1.700000X1.700000*%
%ADD11O,1.700000X1.700000*%
G04 APERTURE END LIST*
D10*
%TO.C,J3*%
X105856000Y-49027000D03*
D11*
X108396000Y-49027000D03*
X105856000Y-51567000D03*
X108396000Y-51567000D03*
X105856000Y-54107000D03*
X108396000Y-54107000D03*
X105856000Y-56647000D03*
X108396000Y-56647000D03*
X105856000Y-59187000D03*
X108396000Y-59187000D03*
X105856000Y-61727000D03*
X108396000Y-61727000D03*
X105856000Y-64267000D03*
X108396000Y-64267000D03*
X105856000Y-66807000D03*
X108396000Y-66807000D03*
X105856000Y-69347000D03*
X108396000Y-69347000D03*
X105856000Y-71887000D03*
X108396000Y-71887000D03*
%TD*%
D10*
%TO.C,J1*%
X66040000Y-78740000D03*
D11*
X63500000Y-78740000D03*
X66040000Y-76200000D03*
X63500000Y-76200000D03*
X66040000Y-73660000D03*
X63500000Y-73660000D03*
X66040000Y-71120000D03*
X63500000Y-71120000D03*
X66040000Y-68580000D03*
X63500000Y-68580000D03*
X66040000Y-66040000D03*
X63500000Y-66040000D03*
X66040000Y-63500000D03*
X63500000Y-63500000D03*
X66040000Y-60960000D03*
X63500000Y-60960000D03*
X66040000Y-58420000D03*
X63500000Y-58420000D03*
X66040000Y-55880000D03*
X63500000Y-55880000D03*
X66040000Y-53340000D03*
X63500000Y-53340000D03*
X66040000Y-50800000D03*
X63500000Y-50800000D03*
X66040000Y-48260000D03*
X63500000Y-48260000D03*
X66040000Y-45720000D03*
X63500000Y-45720000D03*
X66040000Y-43180000D03*
X63500000Y-43180000D03*
%TD*%
D10*
%TO.C,J2*%
X95442000Y-49027000D03*
D11*
X97982000Y-49027000D03*
X95442000Y-51567000D03*
X97982000Y-51567000D03*
X95442000Y-54107000D03*
X97982000Y-54107000D03*
X95442000Y-56647000D03*
X97982000Y-56647000D03*
X95442000Y-59187000D03*
X97982000Y-59187000D03*
X95442000Y-61727000D03*
X97982000Y-61727000D03*
X95442000Y-64267000D03*
X97982000Y-64267000D03*
X95442000Y-66807000D03*
X97982000Y-66807000D03*
X95442000Y-69347000D03*
X97982000Y-69347000D03*
X95442000Y-71887000D03*
X97982000Y-71887000D03*
%TD*%
M02*
