%TF.GenerationSoftware,KiCad,Pcbnew,(6.0.4)*%
%TF.CreationDate,2022-06-14T16:48:53-07:00*%
%TF.ProjectId,colorlight_breakout_io_buffer,636f6c6f-726c-4696-9768-745f62726561,rev?*%
%TF.SameCoordinates,Original*%
%TF.FileFunction,Copper,L2,Bot*%
%TF.FilePolarity,Positive*%
%FSLAX46Y46*%
G04 Gerber Fmt 4.6, Leading zero omitted, Abs format (unit mm)*
G04 Created by KiCad (PCBNEW (6.0.4)) date 2022-06-14 16:48:53*
%MOMM*%
%LPD*%
G01*
G04 APERTURE LIST*
%TA.AperFunction,ComponentPad*%
%ADD10R,1.700000X1.700000*%
%TD*%
%TA.AperFunction,ComponentPad*%
%ADD11O,1.700000X1.700000*%
%TD*%
%TA.AperFunction,ViaPad*%
%ADD12C,0.800000*%
%TD*%
%TA.AperFunction,Conductor*%
%ADD13C,0.500000*%
%TD*%
G04 APERTURE END LIST*
D10*
%TO.P,J3,1,Pin_1*%
%TO.N,GND*%
X105856000Y-49027000D03*
D11*
%TO.P,J3,2,Pin_2*%
X108396000Y-49027000D03*
%TO.P,J3,3,Pin_3*%
%TO.N,2B7*%
X105856000Y-51567000D03*
%TO.P,J3,4,Pin_4*%
%TO.N,2B6*%
X108396000Y-51567000D03*
%TO.P,J3,5,Pin_5*%
%TO.N,2B5*%
X105856000Y-54107000D03*
%TO.P,J3,6,Pin_6*%
%TO.N,2B4*%
X108396000Y-54107000D03*
%TO.P,J3,7,Pin_7*%
%TO.N,2B3*%
X105856000Y-56647000D03*
%TO.P,J3,8,Pin_8*%
%TO.N,2B2*%
X108396000Y-56647000D03*
%TO.P,J3,9,Pin_9*%
%TO.N,2B1*%
X105856000Y-59187000D03*
%TO.P,J3,10,Pin_10*%
%TO.N,2B0*%
X108396000Y-59187000D03*
%TO.P,J3,11,Pin_11*%
%TO.N,CONS_VCC*%
X105856000Y-61727000D03*
%TO.P,J3,12,Pin_12*%
X108396000Y-61727000D03*
%TO.P,J3,13,Pin_13*%
%TO.N,1B7*%
X105856000Y-64267000D03*
%TO.P,J3,14,Pin_14*%
%TO.N,1B6*%
X108396000Y-64267000D03*
%TO.P,J3,15,Pin_15*%
%TO.N,1B5*%
X105856000Y-66807000D03*
%TO.P,J3,16,Pin_16*%
%TO.N,1B4*%
X108396000Y-66807000D03*
%TO.P,J3,17,Pin_17*%
%TO.N,1B3*%
X105856000Y-69347000D03*
%TO.P,J3,18,Pin_18*%
%TO.N,1B2*%
X108396000Y-69347000D03*
%TO.P,J3,19,Pin_19*%
%TO.N,1B1*%
X105856000Y-71887000D03*
%TO.P,J3,20,Pin_20*%
%TO.N,1B0*%
X108396000Y-71887000D03*
%TD*%
D10*
%TO.P,J1,1,Pin_1*%
%TO.N,+3V3*%
X66040000Y-78740000D03*
D11*
%TO.P,J1,2,Pin_2*%
X63500000Y-78740000D03*
%TO.P,J1,3,Pin_3*%
%TO.N,GND*%
X66040000Y-76200000D03*
%TO.P,J1,4,Pin_4*%
X63500000Y-76200000D03*
%TO.P,J1,5,Pin_5*%
%TO.N,1DIR*%
X66040000Y-73660000D03*
%TO.P,J1,6,Pin_6*%
%TO.N,1OE*%
X63500000Y-73660000D03*
%TO.P,J1,7,Pin_7*%
%TO.N,1A0*%
X66040000Y-71120000D03*
%TO.P,J1,8,Pin_8*%
%TO.N,1A1*%
X63500000Y-71120000D03*
%TO.P,J1,9,Pin_9*%
%TO.N,1A2*%
X66040000Y-68580000D03*
%TO.P,J1,10,Pin_10*%
%TO.N,1A3*%
X63500000Y-68580000D03*
%TO.P,J1,11,Pin_11*%
%TO.N,1A4*%
X66040000Y-66040000D03*
%TO.P,J1,12,Pin_12*%
%TO.N,1A5*%
X63500000Y-66040000D03*
%TO.P,J1,13,Pin_13*%
%TO.N,1A6*%
X66040000Y-63500000D03*
%TO.P,J1,14,Pin_14*%
%TO.N,1A7*%
X63500000Y-63500000D03*
%TO.P,J1,15,Pin_15*%
%TO.N,GND*%
X66040000Y-60960000D03*
%TO.P,J1,16,Pin_16*%
%TO.N,+5V*%
X63500000Y-60960000D03*
%TO.P,J1,17,Pin_17*%
%TO.N,2A1*%
X66040000Y-58420000D03*
%TO.P,J1,18,Pin_18*%
%TO.N,2A0*%
X63500000Y-58420000D03*
%TO.P,J1,19,Pin_19*%
%TO.N,+3V3*%
X66040000Y-55880000D03*
%TO.P,J1,20,Pin_20*%
X63500000Y-55880000D03*
%TO.P,J1,21,Pin_21*%
%TO.N,GND*%
X66040000Y-53340000D03*
%TO.P,J1,22,Pin_22*%
X63500000Y-53340000D03*
%TO.P,J1,23,Pin_23*%
%TO.N,2A3*%
X66040000Y-50800000D03*
%TO.P,J1,24,Pin_24*%
%TO.N,2A2*%
X63500000Y-50800000D03*
%TO.P,J1,25,Pin_25*%
%TO.N,2A5*%
X66040000Y-48260000D03*
%TO.P,J1,26,Pin_26*%
%TO.N,2A4*%
X63500000Y-48260000D03*
%TO.P,J1,27,Pin_27*%
%TO.N,2A7*%
X66040000Y-45720000D03*
%TO.P,J1,28,Pin_28*%
%TO.N,2A6*%
X63500000Y-45720000D03*
%TO.P,J1,29,Pin_29*%
%TO.N,2DIR*%
X66040000Y-43180000D03*
%TO.P,J1,30,Pin_30*%
%TO.N,2OE*%
X63500000Y-43180000D03*
%TD*%
D10*
%TO.P,J2,1,Pin_1*%
%TO.N,GND*%
X95442000Y-49027000D03*
D11*
%TO.P,J2,2,Pin_2*%
X97982000Y-49027000D03*
%TO.P,J2,3,Pin_3*%
%TO.N,2B7*%
X95442000Y-51567000D03*
%TO.P,J2,4,Pin_4*%
%TO.N,2B6*%
X97982000Y-51567000D03*
%TO.P,J2,5,Pin_5*%
%TO.N,2B5*%
X95442000Y-54107000D03*
%TO.P,J2,6,Pin_6*%
%TO.N,2B4*%
X97982000Y-54107000D03*
%TO.P,J2,7,Pin_7*%
%TO.N,2B3*%
X95442000Y-56647000D03*
%TO.P,J2,8,Pin_8*%
%TO.N,2B2*%
X97982000Y-56647000D03*
%TO.P,J2,9,Pin_9*%
%TO.N,2B1*%
X95442000Y-59187000D03*
%TO.P,J2,10,Pin_10*%
%TO.N,2B0*%
X97982000Y-59187000D03*
%TO.P,J2,11,Pin_11*%
%TO.N,CONS_VCC*%
X95442000Y-61727000D03*
%TO.P,J2,12,Pin_12*%
X97982000Y-61727000D03*
%TO.P,J2,13,Pin_13*%
%TO.N,1B7*%
X95442000Y-64267000D03*
%TO.P,J2,14,Pin_14*%
%TO.N,1B6*%
X97982000Y-64267000D03*
%TO.P,J2,15,Pin_15*%
%TO.N,1B5*%
X95442000Y-66807000D03*
%TO.P,J2,16,Pin_16*%
%TO.N,1B4*%
X97982000Y-66807000D03*
%TO.P,J2,17,Pin_17*%
%TO.N,1B3*%
X95442000Y-69347000D03*
%TO.P,J2,18,Pin_18*%
%TO.N,1B2*%
X97982000Y-69347000D03*
%TO.P,J2,19,Pin_19*%
%TO.N,1B1*%
X95442000Y-71887000D03*
%TO.P,J2,20,Pin_20*%
%TO.N,1B0*%
X97982000Y-71887000D03*
%TD*%
D12*
%TO.N,+3V3*%
X78232000Y-58166000D03*
X76708000Y-70104000D03*
X78994000Y-63500000D03*
X75438000Y-52324000D03*
%TO.N,CONS_VCC*%
X84836000Y-52324000D03*
X82550000Y-63246000D03*
X86106000Y-68072000D03*
X81788000Y-57912000D03*
%TO.N,GND*%
X82804000Y-59436000D03*
X77978000Y-61976000D03*
X77978000Y-56388000D03*
X80518000Y-68072000D03*
X77978000Y-59436000D03*
X82804000Y-64770000D03*
X82804000Y-61722000D03*
X82804000Y-56388000D03*
X77978000Y-64770000D03*
%TD*%
D13*
%TO.N,+3V3*%
X78867000Y-54483000D02*
X76708000Y-52324000D01*
X73914000Y-52324000D02*
X75438000Y-52324000D01*
X66040000Y-55880000D02*
X70358000Y-55880000D01*
X76708000Y-52324000D02*
X75438000Y-52324000D01*
X78232000Y-58166000D02*
X78867000Y-57531000D01*
X78994000Y-58928000D02*
X78232000Y-58166000D01*
X70358000Y-55880000D02*
X73914000Y-52324000D01*
X78994000Y-63500000D02*
X78994000Y-58928000D01*
X76708000Y-69088000D02*
X78994000Y-66802000D01*
X78994000Y-66802000D02*
X78994000Y-63500000D01*
X78867000Y-57531000D02*
X78867000Y-54483000D01*
X76708000Y-70104000D02*
X76708000Y-69088000D01*
%TO.N,CONS_VCC*%
X92959000Y-61727000D02*
X95442000Y-61727000D01*
X86614000Y-68072000D02*
X92959000Y-61727000D01*
X81788000Y-57912000D02*
X81788000Y-55880000D01*
X81788000Y-55880000D02*
X84836000Y-52832000D01*
X86106000Y-68072000D02*
X86614000Y-68072000D01*
X84328000Y-66294000D02*
X84328000Y-65024000D01*
X82550000Y-63246000D02*
X81788000Y-62484000D01*
X84328000Y-65024000D02*
X82550000Y-63246000D01*
X81788000Y-62484000D02*
X81788000Y-57912000D01*
X84836000Y-52832000D02*
X84836000Y-52324000D01*
X86106000Y-68072000D02*
X84328000Y-66294000D01*
%TD*%
%TA.AperFunction,Conductor*%
%TO.N,GND*%
G36*
X104110018Y-41150000D02*
G01*
X104124852Y-41152310D01*
X104124855Y-41152310D01*
X104133724Y-41153691D01*
X104142627Y-41152527D01*
X104142628Y-41152527D01*
X104155874Y-41150795D01*
X104176703Y-41149811D01*
X104408761Y-41158099D01*
X104642836Y-41166459D01*
X104651808Y-41167101D01*
X105147597Y-41220404D01*
X105156500Y-41221684D01*
X105401865Y-41265952D01*
X105647233Y-41310222D01*
X105656017Y-41312133D01*
X106139186Y-41435454D01*
X106147806Y-41437986D01*
X106273305Y-41479756D01*
X106620944Y-41595461D01*
X106629371Y-41598604D01*
X107090071Y-41789432D01*
X107098253Y-41793169D01*
X107234084Y-41861161D01*
X107381420Y-41934912D01*
X107544150Y-42016369D01*
X107552039Y-42020677D01*
X107592357Y-42044598D01*
X107980897Y-42275130D01*
X107988464Y-42279993D01*
X108398068Y-42564386D01*
X108405268Y-42569776D01*
X108793534Y-42882660D01*
X108800332Y-42888550D01*
X109165296Y-43228344D01*
X109171656Y-43234704D01*
X109384151Y-43462939D01*
X109504707Y-43592425D01*
X109511450Y-43599668D01*
X109517340Y-43606466D01*
X109830224Y-43994732D01*
X109835614Y-44001932D01*
X110120007Y-44411536D01*
X110124870Y-44419103D01*
X110379321Y-44847956D01*
X110383628Y-44855845D01*
X110399863Y-44888277D01*
X110606831Y-45301747D01*
X110610568Y-45309929D01*
X110801396Y-45770629D01*
X110804539Y-45779056D01*
X110962013Y-46252189D01*
X110964546Y-46260814D01*
X111074097Y-46690031D01*
X111087867Y-46743981D01*
X111089779Y-46752770D01*
X111178316Y-47243500D01*
X111179596Y-47252403D01*
X111232899Y-47748192D01*
X111233541Y-47757164D01*
X111249920Y-48215769D01*
X111248500Y-48239649D01*
X111247690Y-48244848D01*
X111247690Y-48244855D01*
X111246309Y-48253724D01*
X111247473Y-48262626D01*
X111247473Y-48262628D01*
X111250436Y-48285283D01*
X111251500Y-48301621D01*
X111251500Y-73610633D01*
X111250000Y-73630018D01*
X111246309Y-73653724D01*
X111247473Y-73662627D01*
X111247473Y-73662628D01*
X111249205Y-73675874D01*
X111250189Y-73696703D01*
X111249003Y-73729908D01*
X111233541Y-74162836D01*
X111232899Y-74171808D01*
X111179596Y-74667597D01*
X111178316Y-74676500D01*
X111111914Y-75044546D01*
X111089779Y-75167230D01*
X111087867Y-75176017D01*
X111005043Y-75500521D01*
X110964547Y-75659181D01*
X110962013Y-75667811D01*
X110804539Y-76140944D01*
X110801396Y-76149371D01*
X110610568Y-76610071D01*
X110606831Y-76618253D01*
X110383631Y-77064150D01*
X110379323Y-77072039D01*
X110370559Y-77086812D01*
X110124870Y-77500897D01*
X110120007Y-77508464D01*
X109835614Y-77918068D01*
X109830224Y-77925268D01*
X109517340Y-78313534D01*
X109511450Y-78320332D01*
X109171656Y-78685296D01*
X109165296Y-78691656D01*
X108800332Y-79031450D01*
X108793534Y-79037340D01*
X108405268Y-79350224D01*
X108398068Y-79355614D01*
X107988464Y-79640007D01*
X107980897Y-79644870D01*
X107858924Y-79717240D01*
X107629563Y-79853327D01*
X107552044Y-79899321D01*
X107544155Y-79903628D01*
X107445002Y-79953261D01*
X107098253Y-80126831D01*
X107090071Y-80130568D01*
X106629371Y-80321396D01*
X106620944Y-80324539D01*
X106273305Y-80440244D01*
X106147806Y-80482014D01*
X106139186Y-80484546D01*
X105656019Y-80607867D01*
X105647233Y-80609778D01*
X105449241Y-80645500D01*
X105156500Y-80698316D01*
X105147597Y-80699596D01*
X104651808Y-80752899D01*
X104642836Y-80753541D01*
X104184231Y-80769920D01*
X104160351Y-80768500D01*
X104155152Y-80767690D01*
X104155145Y-80767690D01*
X104146276Y-80766309D01*
X104137374Y-80767473D01*
X104137372Y-80767473D01*
X104122323Y-80769441D01*
X104114714Y-80770436D01*
X104098379Y-80771500D01*
X60634500Y-80771500D01*
X60566379Y-80751498D01*
X60519886Y-80697842D01*
X60508500Y-80645500D01*
X60508500Y-78706695D01*
X62137251Y-78706695D01*
X62150110Y-78929715D01*
X62151247Y-78934761D01*
X62151248Y-78934767D01*
X62173037Y-79031450D01*
X62199222Y-79147639D01*
X62283266Y-79354616D01*
X62399987Y-79545088D01*
X62546250Y-79713938D01*
X62718126Y-79856632D01*
X62911000Y-79969338D01*
X63119692Y-80049030D01*
X63124760Y-80050061D01*
X63124763Y-80050062D01*
X63232017Y-80071883D01*
X63338597Y-80093567D01*
X63343772Y-80093757D01*
X63343774Y-80093757D01*
X63556673Y-80101564D01*
X63556677Y-80101564D01*
X63561837Y-80101753D01*
X63566957Y-80101097D01*
X63566959Y-80101097D01*
X63778288Y-80074025D01*
X63778289Y-80074025D01*
X63783416Y-80073368D01*
X63788366Y-80071883D01*
X63992429Y-80010661D01*
X63992434Y-80010659D01*
X63997384Y-80009174D01*
X64197994Y-79910896D01*
X64379860Y-79781173D01*
X64488091Y-79673319D01*
X64550462Y-79639404D01*
X64621268Y-79644592D01*
X64678030Y-79687238D01*
X64695012Y-79718341D01*
X64739385Y-79836705D01*
X64826739Y-79953261D01*
X64943295Y-80040615D01*
X65079684Y-80091745D01*
X65141866Y-80098500D01*
X66938134Y-80098500D01*
X67000316Y-80091745D01*
X67136705Y-80040615D01*
X67253261Y-79953261D01*
X67340615Y-79836705D01*
X67391745Y-79700316D01*
X67398500Y-79638134D01*
X67398500Y-77841866D01*
X67391745Y-77779684D01*
X67340615Y-77643295D01*
X67253261Y-77526739D01*
X67136705Y-77439385D01*
X67017687Y-77394767D01*
X66960923Y-77352125D01*
X66936223Y-77285564D01*
X66951430Y-77216215D01*
X66972977Y-77187535D01*
X67074052Y-77086812D01*
X67080730Y-77078965D01*
X67205003Y-76906020D01*
X67210313Y-76897183D01*
X67304670Y-76706267D01*
X67308469Y-76696672D01*
X67370377Y-76492910D01*
X67372555Y-76482837D01*
X67373986Y-76471962D01*
X67371775Y-76457778D01*
X67358617Y-76454000D01*
X62183225Y-76454000D01*
X62169694Y-76457973D01*
X62168257Y-76467966D01*
X62198565Y-76602446D01*
X62201645Y-76612275D01*
X62281770Y-76809603D01*
X62286413Y-76818794D01*
X62397694Y-77000388D01*
X62403777Y-77008699D01*
X62543213Y-77169667D01*
X62550580Y-77176883D01*
X62714434Y-77312916D01*
X62722881Y-77318831D01*
X62791969Y-77359203D01*
X62840693Y-77410842D01*
X62853764Y-77480625D01*
X62827033Y-77546396D01*
X62786584Y-77579752D01*
X62773607Y-77586507D01*
X62769474Y-77589610D01*
X62769471Y-77589612D01*
X62599100Y-77717530D01*
X62594965Y-77720635D01*
X62555525Y-77761907D01*
X62501280Y-77818671D01*
X62440629Y-77882138D01*
X62314743Y-78066680D01*
X62220688Y-78269305D01*
X62160989Y-78484570D01*
X62137251Y-78706695D01*
X60508500Y-78706695D01*
X60508500Y-73626695D01*
X62137251Y-73626695D01*
X62137548Y-73631848D01*
X62137548Y-73631851D01*
X62143011Y-73726590D01*
X62150110Y-73849715D01*
X62151247Y-73854761D01*
X62151248Y-73854767D01*
X62171119Y-73942939D01*
X62199222Y-74067639D01*
X62283266Y-74274616D01*
X62334019Y-74357438D01*
X62397291Y-74460688D01*
X62399987Y-74465088D01*
X62546250Y-74633938D01*
X62622846Y-74697529D01*
X62707098Y-74767476D01*
X62718126Y-74776632D01*
X62791955Y-74819774D01*
X62840679Y-74871412D01*
X62853750Y-74941195D01*
X62827019Y-75006967D01*
X62786562Y-75040327D01*
X62778457Y-75044546D01*
X62769738Y-75050036D01*
X62599433Y-75177905D01*
X62591726Y-75184748D01*
X62444590Y-75338717D01*
X62438104Y-75346727D01*
X62318098Y-75522649D01*
X62313000Y-75531623D01*
X62223338Y-75724783D01*
X62219775Y-75734470D01*
X62164389Y-75934183D01*
X62165912Y-75942607D01*
X62178292Y-75946000D01*
X67358344Y-75946000D01*
X67371875Y-75942027D01*
X67373180Y-75932947D01*
X67331214Y-75765875D01*
X67327894Y-75756124D01*
X67242972Y-75560814D01*
X67238105Y-75551739D01*
X67122426Y-75372926D01*
X67116136Y-75364757D01*
X66972806Y-75207240D01*
X66965273Y-75200215D01*
X66798139Y-75068222D01*
X66789556Y-75062520D01*
X66752602Y-75042120D01*
X66702631Y-74991687D01*
X66687859Y-74922245D01*
X66712975Y-74855839D01*
X66740327Y-74829232D01*
X66763797Y-74812491D01*
X66919860Y-74701173D01*
X66944620Y-74676500D01*
X67074435Y-74547137D01*
X67078096Y-74543489D01*
X67137594Y-74460689D01*
X67205435Y-74366277D01*
X67208453Y-74362077D01*
X67229320Y-74319857D01*
X67305136Y-74166453D01*
X67305137Y-74166451D01*
X67307430Y-74161811D01*
X67372370Y-73948069D01*
X67401529Y-73726590D01*
X67402768Y-73675874D01*
X67403074Y-73663365D01*
X67403074Y-73663361D01*
X67403156Y-73660000D01*
X67384852Y-73437361D01*
X67330431Y-73220702D01*
X67241354Y-73015840D01*
X67143280Y-72864240D01*
X67122822Y-72832617D01*
X67122820Y-72832614D01*
X67120014Y-72828277D01*
X66969670Y-72663051D01*
X66965619Y-72659852D01*
X66965615Y-72659848D01*
X66798414Y-72527800D01*
X66798410Y-72527798D01*
X66794359Y-72524598D01*
X66753053Y-72501796D01*
X66703084Y-72451364D01*
X66688312Y-72381921D01*
X66713428Y-72315516D01*
X66740780Y-72288909D01*
X66784603Y-72257650D01*
X66919860Y-72161173D01*
X67078096Y-72003489D01*
X67137594Y-71920689D01*
X67205435Y-71826277D01*
X67208453Y-71822077D01*
X67229320Y-71779857D01*
X67305136Y-71626453D01*
X67305137Y-71626451D01*
X67307430Y-71621811D01*
X67372370Y-71408069D01*
X67401529Y-71186590D01*
X67403156Y-71120000D01*
X67384852Y-70897361D01*
X67330431Y-70680702D01*
X67241354Y-70475840D01*
X67143280Y-70324240D01*
X67122822Y-70292617D01*
X67122820Y-70292614D01*
X67120014Y-70288277D01*
X66969670Y-70123051D01*
X66965619Y-70119852D01*
X66965615Y-70119848D01*
X66798414Y-69987800D01*
X66798410Y-69987798D01*
X66794359Y-69984598D01*
X66753053Y-69961796D01*
X66703084Y-69911364D01*
X66688312Y-69841921D01*
X66713428Y-69775516D01*
X66740780Y-69748909D01*
X66784603Y-69717650D01*
X66919860Y-69621173D01*
X66940343Y-69600762D01*
X67074435Y-69467137D01*
X67078096Y-69463489D01*
X67137594Y-69380689D01*
X67205435Y-69286277D01*
X67208453Y-69282077D01*
X67229320Y-69239857D01*
X67305136Y-69086453D01*
X67305137Y-69086451D01*
X67307430Y-69081811D01*
X67351090Y-68938109D01*
X67370865Y-68873023D01*
X67370865Y-68873021D01*
X67372370Y-68868069D01*
X67401529Y-68646590D01*
X67402658Y-68600402D01*
X67403074Y-68583365D01*
X67403074Y-68583361D01*
X67403156Y-68580000D01*
X67384852Y-68357361D01*
X67330431Y-68140702D01*
X67241354Y-67935840D01*
X67143280Y-67784240D01*
X67122822Y-67752617D01*
X67122820Y-67752614D01*
X67120014Y-67748277D01*
X66969670Y-67583051D01*
X66965619Y-67579852D01*
X66965615Y-67579848D01*
X66798414Y-67447800D01*
X66798410Y-67447798D01*
X66794359Y-67444598D01*
X66753053Y-67421796D01*
X66703084Y-67371364D01*
X66688312Y-67301921D01*
X66713428Y-67235516D01*
X66740780Y-67208909D01*
X66784603Y-67177650D01*
X66919860Y-67081173D01*
X66932887Y-67068192D01*
X67074435Y-66927137D01*
X67078096Y-66923489D01*
X67097569Y-66896390D01*
X67205435Y-66746277D01*
X67208453Y-66742077D01*
X67229320Y-66699857D01*
X67305136Y-66546453D01*
X67305137Y-66546451D01*
X67307430Y-66541811D01*
X67372370Y-66328069D01*
X67401529Y-66106590D01*
X67403156Y-66040000D01*
X67384852Y-65817361D01*
X67330431Y-65600702D01*
X67241354Y-65395840D01*
X67143280Y-65244240D01*
X67122822Y-65212617D01*
X67122820Y-65212614D01*
X67120014Y-65208277D01*
X66969670Y-65043051D01*
X66965619Y-65039852D01*
X66965615Y-65039848D01*
X66798414Y-64907800D01*
X66798410Y-64907798D01*
X66794359Y-64904598D01*
X66753053Y-64881796D01*
X66703084Y-64831364D01*
X66688312Y-64761921D01*
X66713428Y-64695516D01*
X66740780Y-64668909D01*
X66807912Y-64621024D01*
X66919860Y-64541173D01*
X67078096Y-64383489D01*
X67137594Y-64300689D01*
X67205435Y-64206277D01*
X67208453Y-64202077D01*
X67229320Y-64159857D01*
X67305136Y-64006453D01*
X67305137Y-64006451D01*
X67307430Y-64001811D01*
X67372370Y-63788069D01*
X67401529Y-63566590D01*
X67403156Y-63500000D01*
X67384852Y-63277361D01*
X67330431Y-63060702D01*
X67241354Y-62855840D01*
X67143220Y-62704148D01*
X67122822Y-62672617D01*
X67122820Y-62672614D01*
X67120014Y-62668277D01*
X66969670Y-62503051D01*
X66965619Y-62499852D01*
X66965615Y-62499848D01*
X66798414Y-62367800D01*
X66798410Y-62367798D01*
X66794359Y-62364598D01*
X66752569Y-62341529D01*
X66702598Y-62291097D01*
X66687826Y-62221654D01*
X66712942Y-62155248D01*
X66740294Y-62128641D01*
X66915328Y-62003792D01*
X66923200Y-61997139D01*
X67074052Y-61846812D01*
X67080730Y-61838965D01*
X67205003Y-61666020D01*
X67210313Y-61657183D01*
X67304670Y-61466267D01*
X67308469Y-61456672D01*
X67370377Y-61252910D01*
X67372555Y-61242837D01*
X67373986Y-61231962D01*
X67371775Y-61217778D01*
X67358617Y-61214000D01*
X65912000Y-61214000D01*
X65843879Y-61193998D01*
X65797386Y-61140342D01*
X65786000Y-61088000D01*
X65786000Y-60832000D01*
X65806002Y-60763879D01*
X65859658Y-60717386D01*
X65912000Y-60706000D01*
X67358344Y-60706000D01*
X67371875Y-60702027D01*
X67373180Y-60692947D01*
X67331214Y-60525875D01*
X67327894Y-60516124D01*
X67242972Y-60320814D01*
X67238105Y-60311739D01*
X67122426Y-60132926D01*
X67116136Y-60124757D01*
X66972806Y-59967240D01*
X66965273Y-59960215D01*
X66798139Y-59828222D01*
X66789556Y-59822520D01*
X66752602Y-59802120D01*
X66702631Y-59751687D01*
X66687859Y-59682245D01*
X66712975Y-59615839D01*
X66740327Y-59589232D01*
X66763797Y-59572491D01*
X66919860Y-59461173D01*
X67078096Y-59303489D01*
X67137594Y-59220689D01*
X67205435Y-59126277D01*
X67208453Y-59122077D01*
X67229320Y-59079857D01*
X67305136Y-58926453D01*
X67305137Y-58926451D01*
X67307430Y-58921811D01*
X67372370Y-58708069D01*
X67401529Y-58486590D01*
X67402309Y-58454684D01*
X67403074Y-58423365D01*
X67403074Y-58423361D01*
X67403156Y-58420000D01*
X67384852Y-58197361D01*
X67330431Y-57980702D01*
X67241354Y-57775840D01*
X67146395Y-57629056D01*
X67122822Y-57592617D01*
X67122820Y-57592614D01*
X67120014Y-57588277D01*
X66969670Y-57423051D01*
X66965619Y-57419852D01*
X66965615Y-57419848D01*
X66798414Y-57287800D01*
X66798410Y-57287798D01*
X66794359Y-57284598D01*
X66753053Y-57261796D01*
X66703084Y-57211364D01*
X66688312Y-57141921D01*
X66713428Y-57075516D01*
X66740780Y-57048909D01*
X66784603Y-57017650D01*
X66919860Y-56921173D01*
X67078096Y-56763489D01*
X67130203Y-56690974D01*
X67186198Y-56647326D01*
X67232526Y-56638500D01*
X70290930Y-56638500D01*
X70309880Y-56639933D01*
X70324115Y-56642099D01*
X70324119Y-56642099D01*
X70331349Y-56643199D01*
X70338641Y-56642606D01*
X70338644Y-56642606D01*
X70384018Y-56638915D01*
X70394233Y-56638500D01*
X70402293Y-56638500D01*
X70415583Y-56636951D01*
X70430507Y-56635211D01*
X70434882Y-56634778D01*
X70500339Y-56629454D01*
X70500342Y-56629453D01*
X70507637Y-56628860D01*
X70514601Y-56626604D01*
X70520560Y-56625413D01*
X70526415Y-56624029D01*
X70533681Y-56623182D01*
X70602327Y-56598265D01*
X70606455Y-56596848D01*
X70668936Y-56576607D01*
X70668938Y-56576606D01*
X70675899Y-56574351D01*
X70682154Y-56570555D01*
X70687628Y-56568049D01*
X70693058Y-56565330D01*
X70699937Y-56562833D01*
X70760976Y-56522814D01*
X70764680Y-56520477D01*
X70827107Y-56482595D01*
X70835484Y-56475197D01*
X70835508Y-56475224D01*
X70838500Y-56472571D01*
X70841733Y-56469868D01*
X70847852Y-56465856D01*
X70901128Y-56409617D01*
X70903506Y-56407175D01*
X74191276Y-53119405D01*
X74253588Y-53085379D01*
X74280371Y-53082500D01*
X74895413Y-53082500D01*
X74969472Y-53106563D01*
X74975902Y-53111235D01*
X74975909Y-53111239D01*
X74981248Y-53115118D01*
X74987276Y-53117802D01*
X74987278Y-53117803D01*
X75093658Y-53165166D01*
X75155712Y-53192794D01*
X75249113Y-53212647D01*
X75336056Y-53231128D01*
X75336061Y-53231128D01*
X75342513Y-53232500D01*
X75533487Y-53232500D01*
X75539939Y-53231128D01*
X75539944Y-53231128D01*
X75626888Y-53212647D01*
X75720288Y-53192794D01*
X75782342Y-53165166D01*
X75888722Y-53117803D01*
X75888724Y-53117802D01*
X75894752Y-53115118D01*
X75900091Y-53111239D01*
X75900098Y-53111235D01*
X75906528Y-53106563D01*
X75980587Y-53082500D01*
X76341629Y-53082500D01*
X76409750Y-53102502D01*
X76430724Y-53119405D01*
X78071595Y-54760276D01*
X78105621Y-54822588D01*
X78108500Y-54849371D01*
X78108500Y-57161421D01*
X78088498Y-57229542D01*
X78034842Y-57276035D01*
X78008698Y-57284667D01*
X77956176Y-57295831D01*
X77956167Y-57295834D01*
X77949712Y-57297206D01*
X77943682Y-57299891D01*
X77943681Y-57299891D01*
X77781278Y-57372197D01*
X77781276Y-57372198D01*
X77775248Y-57374882D01*
X77620747Y-57487134D01*
X77616326Y-57492044D01*
X77616325Y-57492045D01*
X77501308Y-57619785D01*
X77492960Y-57629056D01*
X77489659Y-57634774D01*
X77405472Y-57780590D01*
X77397473Y-57794444D01*
X77338458Y-57976072D01*
X77337768Y-57982633D01*
X77337768Y-57982635D01*
X77325920Y-58095365D01*
X77318496Y-58166000D01*
X77319186Y-58172565D01*
X77336091Y-58333403D01*
X77338458Y-58355928D01*
X77397473Y-58537556D01*
X77492960Y-58702944D01*
X77497378Y-58707851D01*
X77497379Y-58707852D01*
X77533260Y-58747702D01*
X77620747Y-58844866D01*
X77775248Y-58957118D01*
X77781276Y-58959802D01*
X77781278Y-58959803D01*
X77938560Y-59029829D01*
X77949712Y-59034794D01*
X77956167Y-59036166D01*
X77956176Y-59036169D01*
X78012772Y-59048199D01*
X78075669Y-59082350D01*
X78198595Y-59205276D01*
X78232621Y-59267588D01*
X78235500Y-59294371D01*
X78235500Y-62963001D01*
X78218619Y-63026000D01*
X78159473Y-63128444D01*
X78100458Y-63310072D01*
X78080496Y-63500000D01*
X78081186Y-63506565D01*
X78090836Y-63598375D01*
X78100458Y-63689928D01*
X78159473Y-63871556D01*
X78162776Y-63877278D01*
X78162777Y-63877279D01*
X78218619Y-63973999D01*
X78235500Y-64036999D01*
X78235500Y-66435629D01*
X78215498Y-66503750D01*
X78198595Y-66524724D01*
X76219089Y-68504230D01*
X76204677Y-68516616D01*
X76193082Y-68525149D01*
X76193077Y-68525154D01*
X76187182Y-68529492D01*
X76182443Y-68535070D01*
X76182440Y-68535073D01*
X76152965Y-68569768D01*
X76146035Y-68577284D01*
X76140340Y-68582979D01*
X76138060Y-68585861D01*
X76122719Y-68605251D01*
X76119928Y-68608655D01*
X76078129Y-68657856D01*
X76072667Y-68664285D01*
X76069339Y-68670803D01*
X76065975Y-68675846D01*
X76062806Y-68680978D01*
X76058266Y-68686716D01*
X76055167Y-68693347D01*
X76027364Y-68752834D01*
X76025433Y-68756784D01*
X75995561Y-68815285D01*
X75995559Y-68815291D01*
X75992231Y-68821808D01*
X75990492Y-68828914D01*
X75988393Y-68834559D01*
X75986476Y-68840322D01*
X75983378Y-68846950D01*
X75981888Y-68854112D01*
X75981888Y-68854113D01*
X75968514Y-68918412D01*
X75967544Y-68922696D01*
X75950192Y-68993610D01*
X75949500Y-69004764D01*
X75949464Y-69004762D01*
X75949225Y-69008755D01*
X75948851Y-69012947D01*
X75947360Y-69020115D01*
X75947558Y-69027432D01*
X75949454Y-69097521D01*
X75949500Y-69100928D01*
X75949500Y-69567001D01*
X75932619Y-69630000D01*
X75873473Y-69732444D01*
X75814458Y-69914072D01*
X75813768Y-69920633D01*
X75813768Y-69920635D01*
X75806709Y-69987800D01*
X75794496Y-70104000D01*
X75795186Y-70110565D01*
X75813463Y-70284457D01*
X75814458Y-70293928D01*
X75873473Y-70475556D01*
X75968960Y-70640944D01*
X75973378Y-70645851D01*
X75973379Y-70645852D01*
X76068593Y-70751598D01*
X76096747Y-70782866D01*
X76251248Y-70895118D01*
X76257276Y-70897802D01*
X76257278Y-70897803D01*
X76419681Y-70970109D01*
X76425712Y-70972794D01*
X76519112Y-70992647D01*
X76606056Y-71011128D01*
X76606061Y-71011128D01*
X76612513Y-71012500D01*
X76803487Y-71012500D01*
X76809939Y-71011128D01*
X76809944Y-71011128D01*
X76896888Y-70992647D01*
X76990288Y-70972794D01*
X76996319Y-70970109D01*
X77158722Y-70897803D01*
X77158724Y-70897802D01*
X77164752Y-70895118D01*
X77319253Y-70782866D01*
X77347407Y-70751598D01*
X77442621Y-70645852D01*
X77442622Y-70645851D01*
X77447040Y-70640944D01*
X77542527Y-70475556D01*
X77601542Y-70293928D01*
X77602538Y-70284457D01*
X77620814Y-70110565D01*
X77621504Y-70104000D01*
X77609291Y-69987800D01*
X77602232Y-69920635D01*
X77602232Y-69920633D01*
X77601542Y-69914072D01*
X77542527Y-69732444D01*
X77483381Y-69630000D01*
X77466500Y-69567001D01*
X77466500Y-69454371D01*
X77486502Y-69386250D01*
X77503405Y-69365276D01*
X79482911Y-67385770D01*
X79497323Y-67373384D01*
X79508918Y-67364851D01*
X79508923Y-67364846D01*
X79514818Y-67360508D01*
X79519557Y-67354930D01*
X79519560Y-67354927D01*
X79549035Y-67320232D01*
X79555965Y-67312716D01*
X79561660Y-67307021D01*
X79579281Y-67284749D01*
X79582072Y-67281345D01*
X79624591Y-67231297D01*
X79624592Y-67231295D01*
X79629333Y-67225715D01*
X79632661Y-67219199D01*
X79636028Y-67214150D01*
X79639195Y-67209021D01*
X79643734Y-67203284D01*
X79674655Y-67137125D01*
X79676561Y-67133225D01*
X79693515Y-67100023D01*
X79709769Y-67068192D01*
X79711508Y-67061084D01*
X79713607Y-67055441D01*
X79715524Y-67049678D01*
X79718622Y-67043050D01*
X79723991Y-67017240D01*
X79733486Y-66971588D01*
X79734457Y-66967299D01*
X79750473Y-66901845D01*
X79751808Y-66896390D01*
X79752500Y-66885236D01*
X79752536Y-66885238D01*
X79752775Y-66881245D01*
X79753149Y-66877053D01*
X79754640Y-66869885D01*
X79752546Y-66792479D01*
X79752500Y-66789072D01*
X79752500Y-64036999D01*
X79769381Y-63973999D01*
X79825223Y-63877279D01*
X79825224Y-63877278D01*
X79828527Y-63871556D01*
X79887542Y-63689928D01*
X79897165Y-63598375D01*
X79906814Y-63506565D01*
X79907504Y-63500000D01*
X79887542Y-63310072D01*
X79828527Y-63128444D01*
X79769381Y-63026000D01*
X79752500Y-62963001D01*
X79752500Y-58995070D01*
X79753933Y-58976120D01*
X79756099Y-58961885D01*
X79756099Y-58961881D01*
X79757199Y-58954651D01*
X79755740Y-58936707D01*
X79752915Y-58901982D01*
X79752500Y-58891767D01*
X79752500Y-58883707D01*
X79749209Y-58855480D01*
X79748778Y-58851121D01*
X79743453Y-58785660D01*
X79742860Y-58778364D01*
X79740605Y-58771403D01*
X79739418Y-58765463D01*
X79738029Y-58759588D01*
X79737182Y-58752319D01*
X79712264Y-58683670D01*
X79710847Y-58679542D01*
X79690607Y-58617064D01*
X79690606Y-58617062D01*
X79688351Y-58610101D01*
X79684555Y-58603846D01*
X79682049Y-58598372D01*
X79679330Y-58592942D01*
X79676833Y-58586063D01*
X79651609Y-58547590D01*
X79636814Y-58525024D01*
X79634467Y-58521305D01*
X79629840Y-58513680D01*
X79596595Y-58458893D01*
X79589197Y-58450516D01*
X79589224Y-58450492D01*
X79586571Y-58447500D01*
X79583868Y-58444267D01*
X79579856Y-58438148D01*
X79523617Y-58384872D01*
X79521175Y-58382494D01*
X79396638Y-58257957D01*
X79362612Y-58195645D01*
X79367677Y-58124830D01*
X79389705Y-58087286D01*
X79422045Y-58049220D01*
X79428965Y-58041716D01*
X79434661Y-58036020D01*
X79436924Y-58033159D01*
X79436929Y-58033154D01*
X79452285Y-58013744D01*
X79455074Y-58010342D01*
X79497596Y-57960291D01*
X79497597Y-57960290D01*
X79502333Y-57954715D01*
X79505661Y-57948198D01*
X79509027Y-57943150D01*
X79512190Y-57938028D01*
X79516735Y-57932284D01*
X79526215Y-57912000D01*
X80874496Y-57912000D01*
X80875186Y-57918565D01*
X80893153Y-58089508D01*
X80894458Y-58101928D01*
X80953473Y-58283556D01*
X80956776Y-58289278D01*
X80956777Y-58289279D01*
X81012619Y-58385999D01*
X81029500Y-58448999D01*
X81029500Y-62416930D01*
X81028067Y-62435880D01*
X81024801Y-62457349D01*
X81025394Y-62464641D01*
X81025394Y-62464644D01*
X81029085Y-62510018D01*
X81029500Y-62520233D01*
X81029500Y-62528293D01*
X81030002Y-62532595D01*
X81032789Y-62556507D01*
X81033222Y-62560882D01*
X81036916Y-62606292D01*
X81039140Y-62633637D01*
X81041396Y-62640601D01*
X81042587Y-62646560D01*
X81043971Y-62652415D01*
X81044818Y-62659681D01*
X81069735Y-62728327D01*
X81071152Y-62732455D01*
X81093649Y-62801899D01*
X81097445Y-62808154D01*
X81099951Y-62813628D01*
X81102670Y-62819058D01*
X81105167Y-62825937D01*
X81109180Y-62832057D01*
X81109180Y-62832058D01*
X81145186Y-62886976D01*
X81147523Y-62890680D01*
X81185405Y-62953107D01*
X81189121Y-62957315D01*
X81189122Y-62957316D01*
X81192803Y-62961484D01*
X81192776Y-62961508D01*
X81195429Y-62964500D01*
X81198132Y-62967733D01*
X81202144Y-62973852D01*
X81240679Y-63010357D01*
X81258383Y-63027128D01*
X81260825Y-63029506D01*
X81629875Y-63398556D01*
X81660613Y-63448714D01*
X81715473Y-63617556D01*
X81810960Y-63782944D01*
X81815378Y-63787851D01*
X81815379Y-63787852D01*
X81918695Y-63902596D01*
X81938747Y-63924866D01*
X82093248Y-64037118D01*
X82099276Y-64039802D01*
X82099278Y-64039803D01*
X82256560Y-64109829D01*
X82267712Y-64114794D01*
X82274167Y-64116166D01*
X82274176Y-64116169D01*
X82330772Y-64128199D01*
X82393669Y-64162350D01*
X83532595Y-65301276D01*
X83566621Y-65363588D01*
X83569500Y-65390371D01*
X83569500Y-66226930D01*
X83568067Y-66245880D01*
X83564801Y-66267349D01*
X83565394Y-66274641D01*
X83565394Y-66274644D01*
X83569085Y-66320018D01*
X83569500Y-66330233D01*
X83569500Y-66338293D01*
X83569925Y-66341937D01*
X83572789Y-66366507D01*
X83573222Y-66370882D01*
X83578489Y-66435629D01*
X83579140Y-66443637D01*
X83581396Y-66450601D01*
X83582587Y-66456560D01*
X83583971Y-66462415D01*
X83584818Y-66469681D01*
X83609735Y-66538327D01*
X83611152Y-66542455D01*
X83633649Y-66611899D01*
X83637445Y-66618154D01*
X83639951Y-66623628D01*
X83642670Y-66629058D01*
X83645167Y-66635937D01*
X83649180Y-66642057D01*
X83649180Y-66642058D01*
X83685186Y-66696976D01*
X83687523Y-66700680D01*
X83725405Y-66763107D01*
X83729121Y-66767315D01*
X83729122Y-66767316D01*
X83732803Y-66771484D01*
X83732776Y-66771508D01*
X83735429Y-66774500D01*
X83738132Y-66777733D01*
X83742144Y-66783852D01*
X83747456Y-66788884D01*
X83798383Y-66837128D01*
X83800825Y-66839506D01*
X85185875Y-68224556D01*
X85216613Y-68274714D01*
X85271473Y-68443556D01*
X85366960Y-68608944D01*
X85371378Y-68613851D01*
X85371379Y-68613852D01*
X85462286Y-68714814D01*
X85494747Y-68750866D01*
X85527644Y-68774767D01*
X85642763Y-68858406D01*
X85649248Y-68863118D01*
X85655276Y-68865802D01*
X85655278Y-68865803D01*
X85760656Y-68912720D01*
X85823712Y-68940794D01*
X85917112Y-68960647D01*
X86004056Y-68979128D01*
X86004061Y-68979128D01*
X86010513Y-68980500D01*
X86201487Y-68980500D01*
X86207939Y-68979128D01*
X86207944Y-68979128D01*
X86294888Y-68960647D01*
X86388288Y-68940794D01*
X86451344Y-68912720D01*
X86556722Y-68865803D01*
X86556724Y-68865802D01*
X86562752Y-68863118D01*
X86568090Y-68859240D01*
X86568093Y-68859238D01*
X86574319Y-68854714D01*
X86638144Y-68831067D01*
X86640012Y-68830915D01*
X86650232Y-68830500D01*
X86658293Y-68830500D01*
X86671583Y-68828951D01*
X86686507Y-68827211D01*
X86690882Y-68826778D01*
X86756339Y-68821454D01*
X86756342Y-68821453D01*
X86763637Y-68820860D01*
X86770601Y-68818604D01*
X86776560Y-68817413D01*
X86782415Y-68816029D01*
X86789681Y-68815182D01*
X86858327Y-68790265D01*
X86862455Y-68788848D01*
X86924936Y-68768607D01*
X86924938Y-68768606D01*
X86931899Y-68766351D01*
X86938154Y-68762555D01*
X86943628Y-68760049D01*
X86949058Y-68757330D01*
X86955937Y-68754833D01*
X87016976Y-68714814D01*
X87020680Y-68712477D01*
X87083107Y-68674595D01*
X87091484Y-68667197D01*
X87091508Y-68667224D01*
X87094500Y-68664571D01*
X87097733Y-68661868D01*
X87103852Y-68657856D01*
X87157128Y-68601617D01*
X87159506Y-68599175D01*
X93236276Y-62522405D01*
X93298588Y-62488379D01*
X93325371Y-62485500D01*
X94244491Y-62485500D01*
X94312612Y-62505502D01*
X94341402Y-62532595D01*
X94341987Y-62532088D01*
X94488250Y-62700938D01*
X94660126Y-62843632D01*
X94703061Y-62868721D01*
X94733445Y-62886476D01*
X94782169Y-62938114D01*
X94795240Y-63007897D01*
X94768509Y-63073669D01*
X94728055Y-63107027D01*
X94715607Y-63113507D01*
X94711474Y-63116610D01*
X94711471Y-63116612D01*
X94541100Y-63244530D01*
X94536965Y-63247635D01*
X94382629Y-63409138D01*
X94256743Y-63593680D01*
X94243004Y-63623279D01*
X94166612Y-63787852D01*
X94162688Y-63796305D01*
X94102989Y-64011570D01*
X94079251Y-64233695D01*
X94079548Y-64238848D01*
X94079548Y-64238851D01*
X94085011Y-64333590D01*
X94092110Y-64456715D01*
X94093247Y-64461761D01*
X94093248Y-64461767D01*
X94110322Y-64537529D01*
X94141222Y-64674639D01*
X94190760Y-64796638D01*
X94211746Y-64848319D01*
X94225266Y-64881616D01*
X94265407Y-64947121D01*
X94339291Y-65067688D01*
X94341987Y-65072088D01*
X94488250Y-65240938D01*
X94660126Y-65383632D01*
X94730595Y-65424811D01*
X94733445Y-65426476D01*
X94782169Y-65478114D01*
X94795240Y-65547897D01*
X94768509Y-65613669D01*
X94728055Y-65647027D01*
X94715607Y-65653507D01*
X94711474Y-65656610D01*
X94711471Y-65656612D01*
X94541100Y-65784530D01*
X94536965Y-65787635D01*
X94382629Y-65949138D01*
X94256743Y-66133680D01*
X94241003Y-66167590D01*
X94165507Y-66330233D01*
X94162688Y-66336305D01*
X94102989Y-66551570D01*
X94079251Y-66773695D01*
X94079548Y-66778848D01*
X94079548Y-66778851D01*
X94085011Y-66873590D01*
X94092110Y-66996715D01*
X94093247Y-67001761D01*
X94093248Y-67001767D01*
X94108218Y-67068192D01*
X94141222Y-67214639D01*
X94190760Y-67336638D01*
X94210711Y-67385770D01*
X94225266Y-67421616D01*
X94276019Y-67504438D01*
X94339291Y-67607688D01*
X94341987Y-67612088D01*
X94488250Y-67780938D01*
X94660126Y-67923632D01*
X94730595Y-67964811D01*
X94733445Y-67966476D01*
X94782169Y-68018114D01*
X94795240Y-68087897D01*
X94768509Y-68153669D01*
X94728055Y-68187027D01*
X94715607Y-68193507D01*
X94711474Y-68196610D01*
X94711471Y-68196612D01*
X94541100Y-68324530D01*
X94536965Y-68327635D01*
X94382629Y-68489138D01*
X94256743Y-68673680D01*
X94223194Y-68745955D01*
X94170611Y-68859237D01*
X94162688Y-68876305D01*
X94102989Y-69091570D01*
X94079251Y-69313695D01*
X94079548Y-69318848D01*
X94079548Y-69318851D01*
X94085011Y-69413590D01*
X94092110Y-69536715D01*
X94093247Y-69541761D01*
X94093248Y-69541767D01*
X94098935Y-69567001D01*
X94141222Y-69754639D01*
X94190760Y-69876638D01*
X94205961Y-69914072D01*
X94225266Y-69961616D01*
X94276019Y-70044438D01*
X94339291Y-70147688D01*
X94341987Y-70152088D01*
X94488250Y-70320938D01*
X94660126Y-70463632D01*
X94730595Y-70504811D01*
X94733445Y-70506476D01*
X94782169Y-70558114D01*
X94795240Y-70627897D01*
X94768509Y-70693669D01*
X94728055Y-70727027D01*
X94715607Y-70733507D01*
X94711474Y-70736610D01*
X94711471Y-70736612D01*
X94541100Y-70864530D01*
X94536965Y-70867635D01*
X94511894Y-70893870D01*
X94435162Y-70974166D01*
X94382629Y-71029138D01*
X94256743Y-71213680D01*
X94162688Y-71416305D01*
X94102989Y-71631570D01*
X94079251Y-71853695D01*
X94079548Y-71858848D01*
X94079548Y-71858851D01*
X94085011Y-71953590D01*
X94092110Y-72076715D01*
X94093247Y-72081761D01*
X94093248Y-72081767D01*
X94110322Y-72157529D01*
X94141222Y-72294639D01*
X94225266Y-72501616D01*
X94276019Y-72584438D01*
X94339291Y-72687688D01*
X94341987Y-72692088D01*
X94488250Y-72860938D01*
X94660126Y-73003632D01*
X94853000Y-73116338D01*
X95061692Y-73196030D01*
X95066760Y-73197061D01*
X95066763Y-73197062D01*
X95159621Y-73215954D01*
X95280597Y-73240567D01*
X95285772Y-73240757D01*
X95285774Y-73240757D01*
X95498673Y-73248564D01*
X95498677Y-73248564D01*
X95503837Y-73248753D01*
X95508957Y-73248097D01*
X95508959Y-73248097D01*
X95720288Y-73221025D01*
X95720289Y-73221025D01*
X95725416Y-73220368D01*
X95740129Y-73215954D01*
X95934429Y-73157661D01*
X95934434Y-73157659D01*
X95939384Y-73156174D01*
X96139994Y-73057896D01*
X96321860Y-72928173D01*
X96480096Y-72770489D01*
X96539594Y-72687689D01*
X96610453Y-72589077D01*
X96611776Y-72590028D01*
X96658645Y-72546857D01*
X96728580Y-72534625D01*
X96794026Y-72562144D01*
X96821875Y-72593994D01*
X96881987Y-72692088D01*
X97028250Y-72860938D01*
X97200126Y-73003632D01*
X97393000Y-73116338D01*
X97601692Y-73196030D01*
X97606760Y-73197061D01*
X97606763Y-73197062D01*
X97699621Y-73215954D01*
X97820597Y-73240567D01*
X97825772Y-73240757D01*
X97825774Y-73240757D01*
X98038673Y-73248564D01*
X98038677Y-73248564D01*
X98043837Y-73248753D01*
X98048957Y-73248097D01*
X98048959Y-73248097D01*
X98260288Y-73221025D01*
X98260289Y-73221025D01*
X98265416Y-73220368D01*
X98280129Y-73215954D01*
X98474429Y-73157661D01*
X98474434Y-73157659D01*
X98479384Y-73156174D01*
X98679994Y-73057896D01*
X98861860Y-72928173D01*
X99020096Y-72770489D01*
X99079594Y-72687689D01*
X99147435Y-72593277D01*
X99150453Y-72589077D01*
X99171320Y-72546857D01*
X99247136Y-72393453D01*
X99247137Y-72393451D01*
X99249430Y-72388811D01*
X99314370Y-72175069D01*
X99343529Y-71953590D01*
X99344130Y-71928990D01*
X99345074Y-71890365D01*
X99345074Y-71890361D01*
X99345156Y-71887000D01*
X99342418Y-71853695D01*
X104493251Y-71853695D01*
X104493548Y-71858848D01*
X104493548Y-71858851D01*
X104499011Y-71953590D01*
X104506110Y-72076715D01*
X104507247Y-72081761D01*
X104507248Y-72081767D01*
X104524322Y-72157529D01*
X104555222Y-72294639D01*
X104639266Y-72501616D01*
X104690019Y-72584438D01*
X104753291Y-72687688D01*
X104755987Y-72692088D01*
X104902250Y-72860938D01*
X105074126Y-73003632D01*
X105267000Y-73116338D01*
X105475692Y-73196030D01*
X105480760Y-73197061D01*
X105480763Y-73197062D01*
X105573621Y-73215954D01*
X105694597Y-73240567D01*
X105699772Y-73240757D01*
X105699774Y-73240757D01*
X105912673Y-73248564D01*
X105912677Y-73248564D01*
X105917837Y-73248753D01*
X105922957Y-73248097D01*
X105922959Y-73248097D01*
X106134288Y-73221025D01*
X106134289Y-73221025D01*
X106139416Y-73220368D01*
X106154129Y-73215954D01*
X106348429Y-73157661D01*
X106348434Y-73157659D01*
X106353384Y-73156174D01*
X106553994Y-73057896D01*
X106735860Y-72928173D01*
X106894096Y-72770489D01*
X106953594Y-72687689D01*
X107024453Y-72589077D01*
X107025776Y-72590028D01*
X107072645Y-72546857D01*
X107142580Y-72534625D01*
X107208026Y-72562144D01*
X107235875Y-72593994D01*
X107295987Y-72692088D01*
X107442250Y-72860938D01*
X107614126Y-73003632D01*
X107807000Y-73116338D01*
X108015692Y-73196030D01*
X108020760Y-73197061D01*
X108020763Y-73197062D01*
X108113621Y-73215954D01*
X108234597Y-73240567D01*
X108239772Y-73240757D01*
X108239774Y-73240757D01*
X108452673Y-73248564D01*
X108452677Y-73248564D01*
X108457837Y-73248753D01*
X108462957Y-73248097D01*
X108462959Y-73248097D01*
X108674288Y-73221025D01*
X108674289Y-73221025D01*
X108679416Y-73220368D01*
X108694129Y-73215954D01*
X108888429Y-73157661D01*
X108888434Y-73157659D01*
X108893384Y-73156174D01*
X109093994Y-73057896D01*
X109275860Y-72928173D01*
X109434096Y-72770489D01*
X109493594Y-72687689D01*
X109561435Y-72593277D01*
X109564453Y-72589077D01*
X109585320Y-72546857D01*
X109661136Y-72393453D01*
X109661137Y-72393451D01*
X109663430Y-72388811D01*
X109728370Y-72175069D01*
X109757529Y-71953590D01*
X109758130Y-71928990D01*
X109759074Y-71890365D01*
X109759074Y-71890361D01*
X109759156Y-71887000D01*
X109740852Y-71664361D01*
X109686431Y-71447702D01*
X109597354Y-71242840D01*
X109517885Y-71120000D01*
X109478822Y-71059617D01*
X109478820Y-71059614D01*
X109476014Y-71055277D01*
X109325670Y-70890051D01*
X109321619Y-70886852D01*
X109321615Y-70886848D01*
X109154414Y-70754800D01*
X109154410Y-70754798D01*
X109150359Y-70751598D01*
X109109053Y-70728796D01*
X109059084Y-70678364D01*
X109044312Y-70608921D01*
X109069428Y-70542516D01*
X109096780Y-70515909D01*
X109162164Y-70469271D01*
X109275860Y-70388173D01*
X109434096Y-70230489D01*
X109493594Y-70147689D01*
X109561435Y-70053277D01*
X109564453Y-70049077D01*
X109585320Y-70006857D01*
X109661136Y-69853453D01*
X109661137Y-69853451D01*
X109663430Y-69848811D01*
X109728370Y-69635069D01*
X109757529Y-69413590D01*
X109758197Y-69386250D01*
X109759074Y-69350365D01*
X109759074Y-69350361D01*
X109759156Y-69347000D01*
X109740852Y-69124361D01*
X109686431Y-68907702D01*
X109597354Y-68702840D01*
X109520062Y-68583365D01*
X109478822Y-68519617D01*
X109478820Y-68519614D01*
X109476014Y-68515277D01*
X109325670Y-68350051D01*
X109321619Y-68346852D01*
X109321615Y-68346848D01*
X109154414Y-68214800D01*
X109154410Y-68214798D01*
X109150359Y-68211598D01*
X109109053Y-68188796D01*
X109059084Y-68138364D01*
X109044312Y-68068921D01*
X109069428Y-68002516D01*
X109096780Y-67975909D01*
X109159050Y-67931492D01*
X109275860Y-67848173D01*
X109434096Y-67690489D01*
X109493594Y-67607689D01*
X109561435Y-67513277D01*
X109564453Y-67509077D01*
X109585320Y-67466857D01*
X109661136Y-67313453D01*
X109661137Y-67313451D01*
X109663430Y-67308811D01*
X109696649Y-67199476D01*
X109726865Y-67100023D01*
X109726865Y-67100021D01*
X109728370Y-67095069D01*
X109757529Y-66873590D01*
X109758130Y-66848990D01*
X109759074Y-66810365D01*
X109759074Y-66810361D01*
X109759156Y-66807000D01*
X109740852Y-66584361D01*
X109686431Y-66367702D01*
X109597354Y-66162840D01*
X109517885Y-66040000D01*
X109478822Y-65979617D01*
X109478820Y-65979614D01*
X109476014Y-65975277D01*
X109325670Y-65810051D01*
X109321619Y-65806852D01*
X109321615Y-65806848D01*
X109154414Y-65674800D01*
X109154410Y-65674798D01*
X109150359Y-65671598D01*
X109109053Y-65648796D01*
X109059084Y-65598364D01*
X109044312Y-65528921D01*
X109069428Y-65462516D01*
X109096780Y-65435909D01*
X109160622Y-65390371D01*
X109275860Y-65308173D01*
X109434096Y-65150489D01*
X109493594Y-65067689D01*
X109561435Y-64973277D01*
X109564453Y-64969077D01*
X109575305Y-64947121D01*
X109661136Y-64773453D01*
X109661137Y-64773451D01*
X109663430Y-64768811D01*
X109728370Y-64555069D01*
X109757529Y-64333590D01*
X109758130Y-64308990D01*
X109759074Y-64270365D01*
X109759074Y-64270361D01*
X109759156Y-64267000D01*
X109740852Y-64044361D01*
X109686431Y-63827702D01*
X109597354Y-63622840D01*
X109517885Y-63500000D01*
X109478822Y-63439617D01*
X109478820Y-63439614D01*
X109476014Y-63435277D01*
X109325670Y-63270051D01*
X109321619Y-63266852D01*
X109321615Y-63266848D01*
X109154414Y-63134800D01*
X109154410Y-63134798D01*
X109150359Y-63131598D01*
X109109053Y-63108796D01*
X109059084Y-63058364D01*
X109044312Y-62988921D01*
X109069428Y-62922516D01*
X109096780Y-62895909D01*
X109159050Y-62851492D01*
X109275860Y-62768173D01*
X109434096Y-62610489D01*
X109493160Y-62528293D01*
X109561435Y-62433277D01*
X109564453Y-62429077D01*
X109570457Y-62416930D01*
X109661136Y-62233453D01*
X109661137Y-62233451D01*
X109663430Y-62228811D01*
X109728370Y-62015069D01*
X109757529Y-61793590D01*
X109758137Y-61768699D01*
X109759074Y-61730365D01*
X109759074Y-61730361D01*
X109759156Y-61727000D01*
X109740852Y-61504361D01*
X109686431Y-61287702D01*
X109597354Y-61082840D01*
X109532290Y-60982267D01*
X109478822Y-60899617D01*
X109478820Y-60899614D01*
X109476014Y-60895277D01*
X109325670Y-60730051D01*
X109321619Y-60726852D01*
X109321615Y-60726848D01*
X109154414Y-60594800D01*
X109154410Y-60594798D01*
X109150359Y-60591598D01*
X109109053Y-60568796D01*
X109059084Y-60518364D01*
X109044312Y-60448921D01*
X109069428Y-60382516D01*
X109096780Y-60355909D01*
X109158704Y-60311739D01*
X109275860Y-60228173D01*
X109434096Y-60070489D01*
X109493594Y-59987689D01*
X109561435Y-59893277D01*
X109564453Y-59889077D01*
X109585320Y-59846857D01*
X109661136Y-59693453D01*
X109661137Y-59693451D01*
X109663430Y-59688811D01*
X109728370Y-59475069D01*
X109757529Y-59253590D01*
X109758130Y-59228990D01*
X109759074Y-59190365D01*
X109759074Y-59190361D01*
X109759156Y-59187000D01*
X109740852Y-58964361D01*
X109686431Y-58747702D01*
X109597354Y-58542840D01*
X109517885Y-58420000D01*
X109478822Y-58359617D01*
X109478820Y-58359614D01*
X109476014Y-58355277D01*
X109325670Y-58190051D01*
X109321619Y-58186852D01*
X109321615Y-58186848D01*
X109154414Y-58054800D01*
X109154410Y-58054798D01*
X109150359Y-58051598D01*
X109109053Y-58028796D01*
X109059084Y-57978364D01*
X109044312Y-57908921D01*
X109069428Y-57842516D01*
X109096780Y-57815909D01*
X109159050Y-57771492D01*
X109275860Y-57688173D01*
X109434096Y-57530489D01*
X109440586Y-57521458D01*
X109561435Y-57353277D01*
X109564453Y-57349077D01*
X109585320Y-57306857D01*
X109661136Y-57153453D01*
X109661137Y-57153451D01*
X109663430Y-57148811D01*
X109728370Y-56935069D01*
X109757529Y-56713590D01*
X109758130Y-56688990D01*
X109759074Y-56650365D01*
X109759074Y-56650361D01*
X109759156Y-56647000D01*
X109740852Y-56424361D01*
X109686431Y-56207702D01*
X109597354Y-56002840D01*
X109526249Y-55892928D01*
X109478822Y-55819617D01*
X109478820Y-55819614D01*
X109476014Y-55815277D01*
X109325670Y-55650051D01*
X109321619Y-55646852D01*
X109321615Y-55646848D01*
X109154414Y-55514800D01*
X109154410Y-55514798D01*
X109150359Y-55511598D01*
X109109053Y-55488796D01*
X109059084Y-55438364D01*
X109044312Y-55368921D01*
X109069428Y-55302516D01*
X109096780Y-55275909D01*
X109157228Y-55232792D01*
X109275860Y-55148173D01*
X109302627Y-55121500D01*
X109360387Y-55063941D01*
X109434096Y-54990489D01*
X109493594Y-54907689D01*
X109561435Y-54813277D01*
X109564453Y-54809077D01*
X109570333Y-54797181D01*
X109661136Y-54613453D01*
X109661137Y-54613451D01*
X109663430Y-54608811D01*
X109710795Y-54452916D01*
X109726865Y-54400023D01*
X109726865Y-54400021D01*
X109728370Y-54395069D01*
X109757529Y-54173590D01*
X109757611Y-54170240D01*
X109759074Y-54110365D01*
X109759074Y-54110361D01*
X109759156Y-54107000D01*
X109740852Y-53884361D01*
X109686431Y-53667702D01*
X109597354Y-53462840D01*
X109519642Y-53342716D01*
X109478822Y-53279617D01*
X109478820Y-53279614D01*
X109476014Y-53275277D01*
X109325670Y-53110051D01*
X109321619Y-53106852D01*
X109321615Y-53106848D01*
X109154414Y-52974800D01*
X109154410Y-52974798D01*
X109150359Y-52971598D01*
X109109053Y-52948796D01*
X109059084Y-52898364D01*
X109044312Y-52828921D01*
X109069428Y-52762516D01*
X109096780Y-52735909D01*
X109162164Y-52689271D01*
X109275860Y-52608173D01*
X109434096Y-52450489D01*
X109493594Y-52367689D01*
X109561435Y-52273277D01*
X109564453Y-52269077D01*
X109585320Y-52226857D01*
X109661136Y-52073453D01*
X109661137Y-52073451D01*
X109663430Y-52068811D01*
X109728370Y-51855069D01*
X109757529Y-51633590D01*
X109757625Y-51629649D01*
X109759074Y-51570365D01*
X109759074Y-51570361D01*
X109759156Y-51567000D01*
X109740852Y-51344361D01*
X109686431Y-51127702D01*
X109597354Y-50922840D01*
X109517885Y-50800000D01*
X109478822Y-50739617D01*
X109478820Y-50739614D01*
X109476014Y-50735277D01*
X109325670Y-50570051D01*
X109321619Y-50566852D01*
X109321615Y-50566848D01*
X109154414Y-50434800D01*
X109154410Y-50434798D01*
X109150359Y-50431598D01*
X109108569Y-50408529D01*
X109058598Y-50358097D01*
X109043826Y-50288654D01*
X109068942Y-50222248D01*
X109096294Y-50195641D01*
X109271328Y-50070792D01*
X109279200Y-50064139D01*
X109430052Y-49913812D01*
X109436730Y-49905965D01*
X109561003Y-49733020D01*
X109566313Y-49724183D01*
X109660670Y-49533267D01*
X109664469Y-49523672D01*
X109726377Y-49319910D01*
X109728555Y-49309837D01*
X109729986Y-49298962D01*
X109727775Y-49284778D01*
X109714617Y-49281000D01*
X104516116Y-49281000D01*
X104500877Y-49285475D01*
X104499672Y-49286865D01*
X104498001Y-49294548D01*
X104498001Y-49921669D01*
X104498371Y-49928490D01*
X104503895Y-49979352D01*
X104507521Y-49994604D01*
X104552676Y-50115054D01*
X104561214Y-50130649D01*
X104637715Y-50232724D01*
X104650276Y-50245285D01*
X104752351Y-50321786D01*
X104767946Y-50330324D01*
X104876827Y-50371142D01*
X104933591Y-50413784D01*
X104958291Y-50480345D01*
X104943083Y-50549694D01*
X104923691Y-50576175D01*
X104922558Y-50577361D01*
X104796629Y-50709138D01*
X104670743Y-50893680D01*
X104576688Y-51096305D01*
X104516989Y-51311570D01*
X104493251Y-51533695D01*
X104493548Y-51538848D01*
X104493548Y-51538851D01*
X104501178Y-51671171D01*
X104506110Y-51756715D01*
X104507247Y-51761761D01*
X104507248Y-51761767D01*
X104524322Y-51837529D01*
X104555222Y-51974639D01*
X104595346Y-52073453D01*
X104631201Y-52161753D01*
X104639266Y-52181616D01*
X104690019Y-52264438D01*
X104753291Y-52367688D01*
X104755987Y-52372088D01*
X104902250Y-52540938D01*
X105074126Y-52683632D01*
X105144595Y-52724811D01*
X105147445Y-52726476D01*
X105196169Y-52778114D01*
X105209240Y-52847897D01*
X105182509Y-52913669D01*
X105142055Y-52947027D01*
X105129607Y-52953507D01*
X105125474Y-52956610D01*
X105125471Y-52956612D01*
X104955100Y-53084530D01*
X104950965Y-53087635D01*
X104936758Y-53102502D01*
X104801396Y-53244150D01*
X104796629Y-53249138D01*
X104670743Y-53433680D01*
X104655003Y-53467590D01*
X104582940Y-53622837D01*
X104576688Y-53636305D01*
X104516989Y-53851570D01*
X104493251Y-54073695D01*
X104493548Y-54078848D01*
X104493548Y-54078851D01*
X104498923Y-54172064D01*
X104506110Y-54296715D01*
X104507247Y-54301761D01*
X104507248Y-54301767D01*
X104525734Y-54383792D01*
X104555222Y-54514639D01*
X104604760Y-54636638D01*
X104618753Y-54671097D01*
X104639266Y-54721616D01*
X104685572Y-54797181D01*
X104753291Y-54907688D01*
X104755987Y-54912088D01*
X104902250Y-55080938D01*
X105074126Y-55223632D01*
X105089802Y-55232792D01*
X105147445Y-55266476D01*
X105196169Y-55318114D01*
X105209240Y-55387897D01*
X105182509Y-55453669D01*
X105142055Y-55487027D01*
X105129607Y-55493507D01*
X105125474Y-55496610D01*
X105125471Y-55496612D01*
X104955100Y-55624530D01*
X104950965Y-55627635D01*
X104796629Y-55789138D01*
X104670743Y-55973680D01*
X104576688Y-56176305D01*
X104516989Y-56391570D01*
X104493251Y-56613695D01*
X104493548Y-56618848D01*
X104493548Y-56618851D01*
X104499011Y-56713590D01*
X104506110Y-56836715D01*
X104507247Y-56841761D01*
X104507248Y-56841767D01*
X104524322Y-56917529D01*
X104555222Y-57054639D01*
X104639266Y-57261616D01*
X104690019Y-57344438D01*
X104753291Y-57447688D01*
X104755987Y-57452088D01*
X104902250Y-57620938D01*
X105074126Y-57763632D01*
X105109290Y-57784180D01*
X105147445Y-57806476D01*
X105196169Y-57858114D01*
X105209240Y-57927897D01*
X105182509Y-57993669D01*
X105142055Y-58027027D01*
X105129607Y-58033507D01*
X105125474Y-58036610D01*
X105125471Y-58036612D01*
X104955100Y-58164530D01*
X104950965Y-58167635D01*
X104796629Y-58329138D01*
X104793720Y-58333403D01*
X104793714Y-58333411D01*
X104760868Y-58381562D01*
X104670743Y-58513680D01*
X104631302Y-58598648D01*
X104580612Y-58707852D01*
X104576688Y-58716305D01*
X104516989Y-58931570D01*
X104493251Y-59153695D01*
X104493548Y-59158848D01*
X104493548Y-59158851D01*
X104499011Y-59253590D01*
X104506110Y-59376715D01*
X104507247Y-59381761D01*
X104507248Y-59381767D01*
X104524322Y-59457529D01*
X104555222Y-59594639D01*
X104604760Y-59716638D01*
X104631201Y-59781753D01*
X104639266Y-59801616D01*
X104690019Y-59884438D01*
X104753291Y-59987688D01*
X104755987Y-59992088D01*
X104902250Y-60160938D01*
X105074126Y-60303632D01*
X105095018Y-60315840D01*
X105147445Y-60346476D01*
X105196169Y-60398114D01*
X105209240Y-60467897D01*
X105182509Y-60533669D01*
X105142055Y-60567027D01*
X105129607Y-60573507D01*
X105125474Y-60576610D01*
X105125471Y-60576612D01*
X104958434Y-60702027D01*
X104950965Y-60707635D01*
X104796629Y-60869138D01*
X104793720Y-60873403D01*
X104793714Y-60873411D01*
X104719458Y-60982267D01*
X104670743Y-61053680D01*
X104637914Y-61124405D01*
X104582940Y-61242837D01*
X104576688Y-61256305D01*
X104516989Y-61471570D01*
X104493251Y-61693695D01*
X104493548Y-61698848D01*
X104493548Y-61698851D01*
X104499011Y-61793590D01*
X104506110Y-61916715D01*
X104507247Y-61921761D01*
X104507248Y-61921767D01*
X104524322Y-61997529D01*
X104555222Y-62134639D01*
X104604760Y-62256638D01*
X104618753Y-62291097D01*
X104639266Y-62341616D01*
X104685418Y-62416930D01*
X104753291Y-62527688D01*
X104755987Y-62532088D01*
X104902250Y-62700938D01*
X105074126Y-62843632D01*
X105117061Y-62868721D01*
X105147445Y-62886476D01*
X105196169Y-62938114D01*
X105209240Y-63007897D01*
X105182509Y-63073669D01*
X105142055Y-63107027D01*
X105129607Y-63113507D01*
X105125474Y-63116610D01*
X105125471Y-63116612D01*
X104955100Y-63244530D01*
X104950965Y-63247635D01*
X104796629Y-63409138D01*
X104670743Y-63593680D01*
X104657004Y-63623279D01*
X104580612Y-63787852D01*
X104576688Y-63796305D01*
X104516989Y-64011570D01*
X104493251Y-64233695D01*
X104493548Y-64238848D01*
X104493548Y-64238851D01*
X104499011Y-64333590D01*
X104506110Y-64456715D01*
X104507247Y-64461761D01*
X104507248Y-64461767D01*
X104524322Y-64537529D01*
X104555222Y-64674639D01*
X104604760Y-64796638D01*
X104625746Y-64848319D01*
X104639266Y-64881616D01*
X104679407Y-64947121D01*
X104753291Y-65067688D01*
X104755987Y-65072088D01*
X104902250Y-65240938D01*
X105074126Y-65383632D01*
X105144595Y-65424811D01*
X105147445Y-65426476D01*
X105196169Y-65478114D01*
X105209240Y-65547897D01*
X105182509Y-65613669D01*
X105142055Y-65647027D01*
X105129607Y-65653507D01*
X105125474Y-65656610D01*
X105125471Y-65656612D01*
X104955100Y-65784530D01*
X104950965Y-65787635D01*
X104796629Y-65949138D01*
X104670743Y-66133680D01*
X104655003Y-66167590D01*
X104579507Y-66330233D01*
X104576688Y-66336305D01*
X104516989Y-66551570D01*
X104493251Y-66773695D01*
X104493548Y-66778848D01*
X104493548Y-66778851D01*
X104499011Y-66873590D01*
X104506110Y-66996715D01*
X104507247Y-67001761D01*
X104507248Y-67001767D01*
X104522218Y-67068192D01*
X104555222Y-67214639D01*
X104604760Y-67336638D01*
X104624711Y-67385770D01*
X104639266Y-67421616D01*
X104690019Y-67504438D01*
X104753291Y-67607688D01*
X104755987Y-67612088D01*
X104902250Y-67780938D01*
X105074126Y-67923632D01*
X105144595Y-67964811D01*
X105147445Y-67966476D01*
X105196169Y-68018114D01*
X105209240Y-68087897D01*
X105182509Y-68153669D01*
X105142055Y-68187027D01*
X105129607Y-68193507D01*
X105125474Y-68196610D01*
X105125471Y-68196612D01*
X104955100Y-68324530D01*
X104950965Y-68327635D01*
X104796629Y-68489138D01*
X104670743Y-68673680D01*
X104637194Y-68745955D01*
X104584611Y-68859237D01*
X104576688Y-68876305D01*
X104516989Y-69091570D01*
X104493251Y-69313695D01*
X104493548Y-69318848D01*
X104493548Y-69318851D01*
X104499011Y-69413590D01*
X104506110Y-69536715D01*
X104507247Y-69541761D01*
X104507248Y-69541767D01*
X104512935Y-69567001D01*
X104555222Y-69754639D01*
X104604760Y-69876638D01*
X104619961Y-69914072D01*
X104639266Y-69961616D01*
X104690019Y-70044438D01*
X104753291Y-70147688D01*
X104755987Y-70152088D01*
X104902250Y-70320938D01*
X105074126Y-70463632D01*
X105144595Y-70504811D01*
X105147445Y-70506476D01*
X105196169Y-70558114D01*
X105209240Y-70627897D01*
X105182509Y-70693669D01*
X105142055Y-70727027D01*
X105129607Y-70733507D01*
X105125474Y-70736610D01*
X105125471Y-70736612D01*
X104955100Y-70864530D01*
X104950965Y-70867635D01*
X104925894Y-70893870D01*
X104849162Y-70974166D01*
X104796629Y-71029138D01*
X104670743Y-71213680D01*
X104576688Y-71416305D01*
X104516989Y-71631570D01*
X104493251Y-71853695D01*
X99342418Y-71853695D01*
X99326852Y-71664361D01*
X99272431Y-71447702D01*
X99183354Y-71242840D01*
X99103885Y-71120000D01*
X99064822Y-71059617D01*
X99064820Y-71059614D01*
X99062014Y-71055277D01*
X98911670Y-70890051D01*
X98907619Y-70886852D01*
X98907615Y-70886848D01*
X98740414Y-70754800D01*
X98740410Y-70754798D01*
X98736359Y-70751598D01*
X98695053Y-70728796D01*
X98645084Y-70678364D01*
X98630312Y-70608921D01*
X98655428Y-70542516D01*
X98682780Y-70515909D01*
X98748164Y-70469271D01*
X98861860Y-70388173D01*
X99020096Y-70230489D01*
X99079594Y-70147689D01*
X99147435Y-70053277D01*
X99150453Y-70049077D01*
X99171320Y-70006857D01*
X99247136Y-69853453D01*
X99247137Y-69853451D01*
X99249430Y-69848811D01*
X99314370Y-69635069D01*
X99343529Y-69413590D01*
X99344197Y-69386250D01*
X99345074Y-69350365D01*
X99345074Y-69350361D01*
X99345156Y-69347000D01*
X99326852Y-69124361D01*
X99272431Y-68907702D01*
X99183354Y-68702840D01*
X99106062Y-68583365D01*
X99064822Y-68519617D01*
X99064820Y-68519614D01*
X99062014Y-68515277D01*
X98911670Y-68350051D01*
X98907619Y-68346852D01*
X98907615Y-68346848D01*
X98740414Y-68214800D01*
X98740410Y-68214798D01*
X98736359Y-68211598D01*
X98695053Y-68188796D01*
X98645084Y-68138364D01*
X98630312Y-68068921D01*
X98655428Y-68002516D01*
X98682780Y-67975909D01*
X98745050Y-67931492D01*
X98861860Y-67848173D01*
X99020096Y-67690489D01*
X99079594Y-67607689D01*
X99147435Y-67513277D01*
X99150453Y-67509077D01*
X99171320Y-67466857D01*
X99247136Y-67313453D01*
X99247137Y-67313451D01*
X99249430Y-67308811D01*
X99282649Y-67199476D01*
X99312865Y-67100023D01*
X99312865Y-67100021D01*
X99314370Y-67095069D01*
X99343529Y-66873590D01*
X99344130Y-66848990D01*
X99345074Y-66810365D01*
X99345074Y-66810361D01*
X99345156Y-66807000D01*
X99326852Y-66584361D01*
X99272431Y-66367702D01*
X99183354Y-66162840D01*
X99103885Y-66040000D01*
X99064822Y-65979617D01*
X99064820Y-65979614D01*
X99062014Y-65975277D01*
X98911670Y-65810051D01*
X98907619Y-65806852D01*
X98907615Y-65806848D01*
X98740414Y-65674800D01*
X98740410Y-65674798D01*
X98736359Y-65671598D01*
X98695053Y-65648796D01*
X98645084Y-65598364D01*
X98630312Y-65528921D01*
X98655428Y-65462516D01*
X98682780Y-65435909D01*
X98746622Y-65390371D01*
X98861860Y-65308173D01*
X99020096Y-65150489D01*
X99079594Y-65067689D01*
X99147435Y-64973277D01*
X99150453Y-64969077D01*
X99161305Y-64947121D01*
X99247136Y-64773453D01*
X99247137Y-64773451D01*
X99249430Y-64768811D01*
X99314370Y-64555069D01*
X99343529Y-64333590D01*
X99344130Y-64308990D01*
X99345074Y-64270365D01*
X99345074Y-64270361D01*
X99345156Y-64267000D01*
X99326852Y-64044361D01*
X99272431Y-63827702D01*
X99183354Y-63622840D01*
X99103885Y-63500000D01*
X99064822Y-63439617D01*
X99064820Y-63439614D01*
X99062014Y-63435277D01*
X98911670Y-63270051D01*
X98907619Y-63266852D01*
X98907615Y-63266848D01*
X98740414Y-63134800D01*
X98740410Y-63134798D01*
X98736359Y-63131598D01*
X98695053Y-63108796D01*
X98645084Y-63058364D01*
X98630312Y-62988921D01*
X98655428Y-62922516D01*
X98682780Y-62895909D01*
X98745050Y-62851492D01*
X98861860Y-62768173D01*
X99020096Y-62610489D01*
X99079160Y-62528293D01*
X99147435Y-62433277D01*
X99150453Y-62429077D01*
X99156457Y-62416930D01*
X99247136Y-62233453D01*
X99247137Y-62233451D01*
X99249430Y-62228811D01*
X99314370Y-62015069D01*
X99343529Y-61793590D01*
X99344137Y-61768699D01*
X99345074Y-61730365D01*
X99345074Y-61730361D01*
X99345156Y-61727000D01*
X99326852Y-61504361D01*
X99272431Y-61287702D01*
X99183354Y-61082840D01*
X99118290Y-60982267D01*
X99064822Y-60899617D01*
X99064820Y-60899614D01*
X99062014Y-60895277D01*
X98911670Y-60730051D01*
X98907619Y-60726852D01*
X98907615Y-60726848D01*
X98740414Y-60594800D01*
X98740410Y-60594798D01*
X98736359Y-60591598D01*
X98695053Y-60568796D01*
X98645084Y-60518364D01*
X98630312Y-60448921D01*
X98655428Y-60382516D01*
X98682780Y-60355909D01*
X98744704Y-60311739D01*
X98861860Y-60228173D01*
X99020096Y-60070489D01*
X99079594Y-59987689D01*
X99147435Y-59893277D01*
X99150453Y-59889077D01*
X99171320Y-59846857D01*
X99247136Y-59693453D01*
X99247137Y-59693451D01*
X99249430Y-59688811D01*
X99314370Y-59475069D01*
X99343529Y-59253590D01*
X99344130Y-59228990D01*
X99345074Y-59190365D01*
X99345074Y-59190361D01*
X99345156Y-59187000D01*
X99326852Y-58964361D01*
X99272431Y-58747702D01*
X99183354Y-58542840D01*
X99103885Y-58420000D01*
X99064822Y-58359617D01*
X99064820Y-58359614D01*
X99062014Y-58355277D01*
X98911670Y-58190051D01*
X98907619Y-58186852D01*
X98907615Y-58186848D01*
X98740414Y-58054800D01*
X98740410Y-58054798D01*
X98736359Y-58051598D01*
X98695053Y-58028796D01*
X98645084Y-57978364D01*
X98630312Y-57908921D01*
X98655428Y-57842516D01*
X98682780Y-57815909D01*
X98745050Y-57771492D01*
X98861860Y-57688173D01*
X99020096Y-57530489D01*
X99026586Y-57521458D01*
X99147435Y-57353277D01*
X99150453Y-57349077D01*
X99171320Y-57306857D01*
X99247136Y-57153453D01*
X99247137Y-57153451D01*
X99249430Y-57148811D01*
X99314370Y-56935069D01*
X99343529Y-56713590D01*
X99344130Y-56688990D01*
X99345074Y-56650365D01*
X99345074Y-56650361D01*
X99345156Y-56647000D01*
X99326852Y-56424361D01*
X99272431Y-56207702D01*
X99183354Y-56002840D01*
X99112249Y-55892928D01*
X99064822Y-55819617D01*
X99064820Y-55819614D01*
X99062014Y-55815277D01*
X98911670Y-55650051D01*
X98907619Y-55646852D01*
X98907615Y-55646848D01*
X98740414Y-55514800D01*
X98740410Y-55514798D01*
X98736359Y-55511598D01*
X98695053Y-55488796D01*
X98645084Y-55438364D01*
X98630312Y-55368921D01*
X98655428Y-55302516D01*
X98682780Y-55275909D01*
X98743228Y-55232792D01*
X98861860Y-55148173D01*
X98888627Y-55121500D01*
X98946387Y-55063941D01*
X99020096Y-54990489D01*
X99079594Y-54907689D01*
X99147435Y-54813277D01*
X99150453Y-54809077D01*
X99156333Y-54797181D01*
X99247136Y-54613453D01*
X99247137Y-54613451D01*
X99249430Y-54608811D01*
X99296795Y-54452916D01*
X99312865Y-54400023D01*
X99312865Y-54400021D01*
X99314370Y-54395069D01*
X99343529Y-54173590D01*
X99343611Y-54170240D01*
X99345074Y-54110365D01*
X99345074Y-54110361D01*
X99345156Y-54107000D01*
X99326852Y-53884361D01*
X99272431Y-53667702D01*
X99183354Y-53462840D01*
X99105642Y-53342716D01*
X99064822Y-53279617D01*
X99064820Y-53279614D01*
X99062014Y-53275277D01*
X98911670Y-53110051D01*
X98907619Y-53106852D01*
X98907615Y-53106848D01*
X98740414Y-52974800D01*
X98740410Y-52974798D01*
X98736359Y-52971598D01*
X98695053Y-52948796D01*
X98645084Y-52898364D01*
X98630312Y-52828921D01*
X98655428Y-52762516D01*
X98682780Y-52735909D01*
X98748164Y-52689271D01*
X98861860Y-52608173D01*
X99020096Y-52450489D01*
X99079594Y-52367689D01*
X99147435Y-52273277D01*
X99150453Y-52269077D01*
X99171320Y-52226857D01*
X99247136Y-52073453D01*
X99247137Y-52073451D01*
X99249430Y-52068811D01*
X99314370Y-51855069D01*
X99343529Y-51633590D01*
X99343625Y-51629649D01*
X99345074Y-51570365D01*
X99345074Y-51570361D01*
X99345156Y-51567000D01*
X99326852Y-51344361D01*
X99272431Y-51127702D01*
X99183354Y-50922840D01*
X99103885Y-50800000D01*
X99064822Y-50739617D01*
X99064820Y-50739614D01*
X99062014Y-50735277D01*
X98911670Y-50570051D01*
X98907619Y-50566852D01*
X98907615Y-50566848D01*
X98740414Y-50434800D01*
X98740410Y-50434798D01*
X98736359Y-50431598D01*
X98694569Y-50408529D01*
X98644598Y-50358097D01*
X98629826Y-50288654D01*
X98654942Y-50222248D01*
X98682294Y-50195641D01*
X98857328Y-50070792D01*
X98865200Y-50064139D01*
X99016052Y-49913812D01*
X99022730Y-49905965D01*
X99147003Y-49733020D01*
X99152313Y-49724183D01*
X99246670Y-49533267D01*
X99250469Y-49523672D01*
X99312377Y-49319910D01*
X99314555Y-49309837D01*
X99315986Y-49298962D01*
X99313775Y-49284778D01*
X99300617Y-49281000D01*
X94102116Y-49281000D01*
X94086877Y-49285475D01*
X94085672Y-49286865D01*
X94084001Y-49294548D01*
X94084001Y-49921669D01*
X94084371Y-49928490D01*
X94089895Y-49979352D01*
X94093521Y-49994604D01*
X94138676Y-50115054D01*
X94147214Y-50130649D01*
X94223715Y-50232724D01*
X94236276Y-50245285D01*
X94338351Y-50321786D01*
X94353946Y-50330324D01*
X94462827Y-50371142D01*
X94519591Y-50413784D01*
X94544291Y-50480345D01*
X94529083Y-50549694D01*
X94509691Y-50576175D01*
X94508558Y-50577361D01*
X94382629Y-50709138D01*
X94256743Y-50893680D01*
X94162688Y-51096305D01*
X94102989Y-51311570D01*
X94079251Y-51533695D01*
X94079548Y-51538848D01*
X94079548Y-51538851D01*
X94087178Y-51671171D01*
X94092110Y-51756715D01*
X94093247Y-51761761D01*
X94093248Y-51761767D01*
X94110322Y-51837529D01*
X94141222Y-51974639D01*
X94181346Y-52073453D01*
X94217201Y-52161753D01*
X94225266Y-52181616D01*
X94276019Y-52264438D01*
X94339291Y-52367688D01*
X94341987Y-52372088D01*
X94488250Y-52540938D01*
X94660126Y-52683632D01*
X94730595Y-52724811D01*
X94733445Y-52726476D01*
X94782169Y-52778114D01*
X94795240Y-52847897D01*
X94768509Y-52913669D01*
X94728055Y-52947027D01*
X94715607Y-52953507D01*
X94711474Y-52956610D01*
X94711471Y-52956612D01*
X94541100Y-53084530D01*
X94536965Y-53087635D01*
X94522758Y-53102502D01*
X94387396Y-53244150D01*
X94382629Y-53249138D01*
X94256743Y-53433680D01*
X94241003Y-53467590D01*
X94168940Y-53622837D01*
X94162688Y-53636305D01*
X94102989Y-53851570D01*
X94079251Y-54073695D01*
X94079548Y-54078848D01*
X94079548Y-54078851D01*
X94084923Y-54172064D01*
X94092110Y-54296715D01*
X94093247Y-54301761D01*
X94093248Y-54301767D01*
X94111734Y-54383792D01*
X94141222Y-54514639D01*
X94190760Y-54636638D01*
X94204753Y-54671097D01*
X94225266Y-54721616D01*
X94271572Y-54797181D01*
X94339291Y-54907688D01*
X94341987Y-54912088D01*
X94488250Y-55080938D01*
X94660126Y-55223632D01*
X94675802Y-55232792D01*
X94733445Y-55266476D01*
X94782169Y-55318114D01*
X94795240Y-55387897D01*
X94768509Y-55453669D01*
X94728055Y-55487027D01*
X94715607Y-55493507D01*
X94711474Y-55496610D01*
X94711471Y-55496612D01*
X94541100Y-55624530D01*
X94536965Y-55627635D01*
X94382629Y-55789138D01*
X94256743Y-55973680D01*
X94162688Y-56176305D01*
X94102989Y-56391570D01*
X94079251Y-56613695D01*
X94079548Y-56618848D01*
X94079548Y-56618851D01*
X94085011Y-56713590D01*
X94092110Y-56836715D01*
X94093247Y-56841761D01*
X94093248Y-56841767D01*
X94110322Y-56917529D01*
X94141222Y-57054639D01*
X94225266Y-57261616D01*
X94276019Y-57344438D01*
X94339291Y-57447688D01*
X94341987Y-57452088D01*
X94488250Y-57620938D01*
X94660126Y-57763632D01*
X94695290Y-57784180D01*
X94733445Y-57806476D01*
X94782169Y-57858114D01*
X94795240Y-57927897D01*
X94768509Y-57993669D01*
X94728055Y-58027027D01*
X94715607Y-58033507D01*
X94711474Y-58036610D01*
X94711471Y-58036612D01*
X94541100Y-58164530D01*
X94536965Y-58167635D01*
X94382629Y-58329138D01*
X94379720Y-58333403D01*
X94379714Y-58333411D01*
X94346868Y-58381562D01*
X94256743Y-58513680D01*
X94217302Y-58598648D01*
X94166612Y-58707852D01*
X94162688Y-58716305D01*
X94102989Y-58931570D01*
X94079251Y-59153695D01*
X94079548Y-59158848D01*
X94079548Y-59158851D01*
X94085011Y-59253590D01*
X94092110Y-59376715D01*
X94093247Y-59381761D01*
X94093248Y-59381767D01*
X94110322Y-59457529D01*
X94141222Y-59594639D01*
X94190760Y-59716638D01*
X94217201Y-59781753D01*
X94225266Y-59801616D01*
X94276019Y-59884438D01*
X94339291Y-59987688D01*
X94341987Y-59992088D01*
X94488250Y-60160938D01*
X94660126Y-60303632D01*
X94681018Y-60315840D01*
X94733445Y-60346476D01*
X94782169Y-60398114D01*
X94795240Y-60467897D01*
X94768509Y-60533669D01*
X94728055Y-60567027D01*
X94715607Y-60573507D01*
X94711474Y-60576610D01*
X94711471Y-60576612D01*
X94544434Y-60702027D01*
X94536965Y-60707635D01*
X94382629Y-60869138D01*
X94352363Y-60913507D01*
X94297455Y-60958507D01*
X94248277Y-60968500D01*
X93026070Y-60968500D01*
X93007120Y-60967067D01*
X92992885Y-60964901D01*
X92992881Y-60964901D01*
X92985651Y-60963801D01*
X92978359Y-60964394D01*
X92978356Y-60964394D01*
X92932982Y-60968085D01*
X92922767Y-60968500D01*
X92914707Y-60968500D01*
X92901417Y-60970049D01*
X92886493Y-60971789D01*
X92882118Y-60972222D01*
X92816661Y-60977546D01*
X92816658Y-60977547D01*
X92809363Y-60978140D01*
X92802399Y-60980396D01*
X92796440Y-60981587D01*
X92790585Y-60982971D01*
X92783319Y-60983818D01*
X92714673Y-61008735D01*
X92710545Y-61010152D01*
X92648064Y-61030393D01*
X92648062Y-61030394D01*
X92641101Y-61032649D01*
X92634846Y-61036445D01*
X92629372Y-61038951D01*
X92623942Y-61041670D01*
X92617063Y-61044167D01*
X92610943Y-61048180D01*
X92610942Y-61048180D01*
X92556024Y-61084186D01*
X92552320Y-61086523D01*
X92489893Y-61124405D01*
X92481516Y-61131803D01*
X92481492Y-61131776D01*
X92478500Y-61134429D01*
X92475267Y-61137132D01*
X92469148Y-61141144D01*
X92464116Y-61146456D01*
X92415872Y-61197383D01*
X92413494Y-61199825D01*
X86454663Y-67158656D01*
X86392351Y-67192682D01*
X86339371Y-67192808D01*
X86325229Y-67189802D01*
X86262331Y-67155650D01*
X85123405Y-66016724D01*
X85089379Y-65954412D01*
X85086500Y-65927629D01*
X85086500Y-65091070D01*
X85087933Y-65072120D01*
X85090099Y-65057885D01*
X85090099Y-65057881D01*
X85091199Y-65050651D01*
X85090321Y-65039848D01*
X85086915Y-64997982D01*
X85086500Y-64987767D01*
X85086500Y-64979707D01*
X85085751Y-64973277D01*
X85083211Y-64951497D01*
X85082778Y-64947121D01*
X85080135Y-64914625D01*
X85076860Y-64874364D01*
X85074605Y-64867403D01*
X85073418Y-64861463D01*
X85072029Y-64855588D01*
X85071182Y-64848319D01*
X85046264Y-64779670D01*
X85044847Y-64775542D01*
X85024607Y-64713064D01*
X85024606Y-64713062D01*
X85022351Y-64706101D01*
X85018555Y-64699846D01*
X85016049Y-64694372D01*
X85013330Y-64688942D01*
X85010833Y-64682063D01*
X84970814Y-64621024D01*
X84968467Y-64617305D01*
X84966053Y-64613327D01*
X84930595Y-64554893D01*
X84923197Y-64546516D01*
X84923224Y-64546492D01*
X84920571Y-64543500D01*
X84917868Y-64540267D01*
X84913856Y-64534148D01*
X84857617Y-64480872D01*
X84855175Y-64478494D01*
X83470125Y-63093444D01*
X83439387Y-63043285D01*
X83386569Y-62880729D01*
X83384527Y-62874444D01*
X83376529Y-62860590D01*
X83292341Y-62714774D01*
X83289040Y-62709056D01*
X83252323Y-62668277D01*
X83165675Y-62572045D01*
X83165674Y-62572044D01*
X83161253Y-62567134D01*
X83062157Y-62495136D01*
X83012094Y-62458763D01*
X83012093Y-62458762D01*
X83006752Y-62454882D01*
X83000724Y-62452198D01*
X83000722Y-62452197D01*
X82838319Y-62379891D01*
X82838318Y-62379891D01*
X82832288Y-62377206D01*
X82825833Y-62375834D01*
X82825824Y-62375831D01*
X82769228Y-62363801D01*
X82706331Y-62329650D01*
X82583405Y-62206724D01*
X82549379Y-62144412D01*
X82546500Y-62117629D01*
X82546500Y-58448999D01*
X82563381Y-58385999D01*
X82619223Y-58289279D01*
X82619224Y-58289278D01*
X82622527Y-58283556D01*
X82681542Y-58101928D01*
X82682848Y-58089508D01*
X82700814Y-57918565D01*
X82701504Y-57912000D01*
X82688070Y-57784180D01*
X82682232Y-57728635D01*
X82682232Y-57728633D01*
X82681542Y-57722072D01*
X82622527Y-57540444D01*
X82616780Y-57530489D01*
X82571514Y-57452088D01*
X82563381Y-57438000D01*
X82546500Y-57375001D01*
X82546500Y-56246371D01*
X82566502Y-56178250D01*
X82583405Y-56157276D01*
X85324911Y-53415770D01*
X85339323Y-53403384D01*
X85350918Y-53394851D01*
X85350923Y-53394846D01*
X85356818Y-53390508D01*
X85361557Y-53384930D01*
X85361560Y-53384927D01*
X85391035Y-53350232D01*
X85397965Y-53342716D01*
X85403660Y-53337021D01*
X85421281Y-53314749D01*
X85424072Y-53311345D01*
X85466591Y-53261297D01*
X85466592Y-53261295D01*
X85471333Y-53255715D01*
X85474661Y-53249199D01*
X85478028Y-53244150D01*
X85481195Y-53239021D01*
X85485734Y-53233284D01*
X85516655Y-53167125D01*
X85518561Y-53163225D01*
X85551769Y-53098192D01*
X85553508Y-53091084D01*
X85555607Y-53085441D01*
X85557524Y-53079678D01*
X85560622Y-53073050D01*
X85575487Y-53001583D01*
X85576457Y-52997299D01*
X85592473Y-52931845D01*
X85593808Y-52926390D01*
X85594500Y-52915236D01*
X85594536Y-52915238D01*
X85594775Y-52911245D01*
X85595149Y-52907053D01*
X85596640Y-52899885D01*
X85596384Y-52890429D01*
X85595630Y-52862529D01*
X85612465Y-52796123D01*
X85667223Y-52701279D01*
X85667224Y-52701278D01*
X85670527Y-52695556D01*
X85729542Y-52513928D01*
X85749504Y-52324000D01*
X85738008Y-52214625D01*
X85730232Y-52140635D01*
X85730232Y-52140633D01*
X85729542Y-52134072D01*
X85670527Y-51952444D01*
X85575040Y-51787056D01*
X85555772Y-51765656D01*
X85451675Y-51650045D01*
X85451674Y-51650044D01*
X85447253Y-51645134D01*
X85337268Y-51565225D01*
X85298094Y-51536763D01*
X85298093Y-51536762D01*
X85292752Y-51532882D01*
X85286724Y-51530198D01*
X85286722Y-51530197D01*
X85124319Y-51457891D01*
X85124318Y-51457891D01*
X85118288Y-51455206D01*
X85024888Y-51435353D01*
X84937944Y-51416872D01*
X84937939Y-51416872D01*
X84931487Y-51415500D01*
X84740513Y-51415500D01*
X84734061Y-51416872D01*
X84734056Y-51416872D01*
X84647112Y-51435353D01*
X84553712Y-51455206D01*
X84547682Y-51457891D01*
X84547681Y-51457891D01*
X84385278Y-51530197D01*
X84385276Y-51530198D01*
X84379248Y-51532882D01*
X84373907Y-51536762D01*
X84373906Y-51536763D01*
X84334732Y-51565225D01*
X84224747Y-51645134D01*
X84220326Y-51650044D01*
X84220325Y-51650045D01*
X84116229Y-51765656D01*
X84096960Y-51787056D01*
X84001473Y-51952444D01*
X83942458Y-52134072D01*
X83941768Y-52140633D01*
X83941768Y-52140635D01*
X83933992Y-52214625D01*
X83922496Y-52324000D01*
X83923186Y-52330565D01*
X83936174Y-52454137D01*
X83942458Y-52513928D01*
X83944500Y-52520212D01*
X83944500Y-52520213D01*
X83952669Y-52545353D01*
X83954698Y-52616321D01*
X83921932Y-52673387D01*
X81299089Y-55296230D01*
X81284677Y-55308616D01*
X81273082Y-55317149D01*
X81273077Y-55317154D01*
X81267182Y-55321492D01*
X81262443Y-55327070D01*
X81262440Y-55327073D01*
X81232965Y-55361768D01*
X81226035Y-55369284D01*
X81220340Y-55374979D01*
X81218060Y-55377861D01*
X81202719Y-55397251D01*
X81199928Y-55400655D01*
X81167892Y-55438364D01*
X81152667Y-55456285D01*
X81149339Y-55462801D01*
X81145972Y-55467850D01*
X81142805Y-55472979D01*
X81138266Y-55478716D01*
X81107345Y-55544875D01*
X81105442Y-55548769D01*
X81072231Y-55613808D01*
X81070492Y-55620916D01*
X81068393Y-55626559D01*
X81066476Y-55632322D01*
X81063378Y-55638950D01*
X81061888Y-55646112D01*
X81061888Y-55646113D01*
X81048514Y-55710412D01*
X81047544Y-55714696D01*
X81030192Y-55785610D01*
X81029844Y-55791212D01*
X81029844Y-55791215D01*
X81029708Y-55793411D01*
X81029500Y-55796764D01*
X81029464Y-55796762D01*
X81029225Y-55800755D01*
X81028851Y-55804947D01*
X81027360Y-55812115D01*
X81028435Y-55851851D01*
X81029454Y-55889521D01*
X81029500Y-55892928D01*
X81029500Y-57375001D01*
X81012619Y-57438000D01*
X81004486Y-57452088D01*
X80959221Y-57530489D01*
X80953473Y-57540444D01*
X80894458Y-57722072D01*
X80893768Y-57728633D01*
X80893768Y-57728635D01*
X80887930Y-57784180D01*
X80874496Y-57912000D01*
X79526215Y-57912000D01*
X79547664Y-57866105D01*
X79549563Y-57862221D01*
X79582769Y-57797192D01*
X79584510Y-57790077D01*
X79586613Y-57784422D01*
X79588522Y-57778683D01*
X79591622Y-57772050D01*
X79606491Y-57700565D01*
X79607461Y-57696282D01*
X79608712Y-57691171D01*
X79624808Y-57625390D01*
X79625500Y-57614236D01*
X79625535Y-57614238D01*
X79625775Y-57610266D01*
X79626152Y-57606045D01*
X79627641Y-57598885D01*
X79625546Y-57521458D01*
X79625500Y-57518050D01*
X79625500Y-54550070D01*
X79626933Y-54531120D01*
X79629099Y-54516885D01*
X79629099Y-54516881D01*
X79630199Y-54509651D01*
X79629350Y-54499203D01*
X79625915Y-54456982D01*
X79625500Y-54446767D01*
X79625500Y-54438707D01*
X79622211Y-54410493D01*
X79621778Y-54406118D01*
X79616454Y-54340661D01*
X79616453Y-54340658D01*
X79615860Y-54333363D01*
X79613604Y-54326399D01*
X79612413Y-54320440D01*
X79611029Y-54314585D01*
X79610182Y-54307319D01*
X79585265Y-54238673D01*
X79583848Y-54234545D01*
X79563607Y-54172064D01*
X79563606Y-54172062D01*
X79561351Y-54165101D01*
X79557555Y-54158846D01*
X79555049Y-54153372D01*
X79552330Y-54147942D01*
X79549833Y-54141063D01*
X79545820Y-54134942D01*
X79509814Y-54080024D01*
X79507467Y-54076305D01*
X79469595Y-54013893D01*
X79462197Y-54005516D01*
X79462224Y-54005492D01*
X79459571Y-54002500D01*
X79456868Y-53999267D01*
X79452856Y-53993148D01*
X79396617Y-53939872D01*
X79394175Y-53937494D01*
X77291770Y-51835089D01*
X77279384Y-51820677D01*
X77270851Y-51809082D01*
X77270846Y-51809077D01*
X77266508Y-51803182D01*
X77260930Y-51798443D01*
X77260927Y-51798440D01*
X77226232Y-51768965D01*
X77218716Y-51762035D01*
X77213021Y-51756340D01*
X77206880Y-51751482D01*
X77190749Y-51738719D01*
X77187345Y-51735928D01*
X77137297Y-51693409D01*
X77137295Y-51693408D01*
X77131715Y-51688667D01*
X77125199Y-51685339D01*
X77120150Y-51681972D01*
X77115021Y-51678805D01*
X77109284Y-51674266D01*
X77043125Y-51643345D01*
X77039225Y-51641439D01*
X77038857Y-51641251D01*
X76974192Y-51608231D01*
X76967084Y-51606492D01*
X76961441Y-51604393D01*
X76955678Y-51602476D01*
X76949050Y-51599378D01*
X76877583Y-51584513D01*
X76873299Y-51583543D01*
X76838958Y-51575140D01*
X76802390Y-51566192D01*
X76796788Y-51565844D01*
X76796785Y-51565844D01*
X76791236Y-51565500D01*
X76791238Y-51565464D01*
X76787245Y-51565225D01*
X76783053Y-51564851D01*
X76775885Y-51563360D01*
X76712120Y-51565085D01*
X76698479Y-51565454D01*
X76695072Y-51565500D01*
X75980587Y-51565500D01*
X75906528Y-51541437D01*
X75900098Y-51536765D01*
X75900091Y-51536761D01*
X75894752Y-51532882D01*
X75888724Y-51530198D01*
X75888722Y-51530197D01*
X75726319Y-51457891D01*
X75726318Y-51457891D01*
X75720288Y-51455206D01*
X75626888Y-51435353D01*
X75539944Y-51416872D01*
X75539939Y-51416872D01*
X75533487Y-51415500D01*
X75342513Y-51415500D01*
X75336061Y-51416872D01*
X75336056Y-51416872D01*
X75249112Y-51435353D01*
X75155712Y-51455206D01*
X75149682Y-51457891D01*
X75149681Y-51457891D01*
X74987278Y-51530197D01*
X74987276Y-51530198D01*
X74981248Y-51532882D01*
X74975909Y-51536761D01*
X74975902Y-51536765D01*
X74969472Y-51541437D01*
X74895413Y-51565500D01*
X73981063Y-51565500D01*
X73962114Y-51564067D01*
X73959346Y-51563646D01*
X73940651Y-51560802D01*
X73933359Y-51561395D01*
X73933356Y-51561395D01*
X73887991Y-51565085D01*
X73877777Y-51565500D01*
X73869707Y-51565500D01*
X73866087Y-51565922D01*
X73866069Y-51565923D01*
X73841461Y-51568792D01*
X73837100Y-51569224D01*
X73811981Y-51571267D01*
X73771661Y-51574546D01*
X73771658Y-51574547D01*
X73764363Y-51575140D01*
X73757399Y-51577396D01*
X73751440Y-51578587D01*
X73745585Y-51579971D01*
X73738319Y-51580818D01*
X73669673Y-51605735D01*
X73665545Y-51607152D01*
X73603064Y-51627393D01*
X73603062Y-51627394D01*
X73596101Y-51629649D01*
X73589846Y-51633445D01*
X73584372Y-51635951D01*
X73578942Y-51638670D01*
X73572063Y-51641167D01*
X73511016Y-51681191D01*
X73507327Y-51683518D01*
X73501364Y-51687137D01*
X73449693Y-51718491D01*
X73449688Y-51718495D01*
X73444892Y-51721405D01*
X73436516Y-51728803D01*
X73436493Y-51728777D01*
X73433503Y-51731426D01*
X73430264Y-51734134D01*
X73424148Y-51738144D01*
X73419121Y-51743451D01*
X73419117Y-51743454D01*
X73370872Y-51794383D01*
X73368494Y-51796825D01*
X70080724Y-55084595D01*
X70018412Y-55118621D01*
X69991629Y-55121500D01*
X67235939Y-55121500D01*
X67167818Y-55101498D01*
X67130147Y-55063941D01*
X67122822Y-55052617D01*
X67120014Y-55048277D01*
X66969670Y-54883051D01*
X66965619Y-54879852D01*
X66965615Y-54879848D01*
X66798414Y-54747800D01*
X66798410Y-54747798D01*
X66794359Y-54744598D01*
X66752569Y-54721529D01*
X66702598Y-54671097D01*
X66687826Y-54601654D01*
X66712942Y-54535248D01*
X66740294Y-54508641D01*
X66915328Y-54383792D01*
X66923200Y-54377139D01*
X67074052Y-54226812D01*
X67080730Y-54218965D01*
X67205003Y-54046020D01*
X67210313Y-54037183D01*
X67304670Y-53846267D01*
X67308469Y-53836672D01*
X67370377Y-53632910D01*
X67372555Y-53622837D01*
X67373986Y-53611962D01*
X67371775Y-53597778D01*
X67358617Y-53594000D01*
X62183225Y-53594000D01*
X62169694Y-53597973D01*
X62168257Y-53607966D01*
X62198565Y-53742446D01*
X62201645Y-53752275D01*
X62281770Y-53949603D01*
X62286413Y-53958794D01*
X62397694Y-54140388D01*
X62403777Y-54148699D01*
X62543213Y-54309667D01*
X62550580Y-54316883D01*
X62714434Y-54452916D01*
X62722881Y-54458831D01*
X62791969Y-54499203D01*
X62840693Y-54550842D01*
X62853764Y-54620625D01*
X62827033Y-54686396D01*
X62786584Y-54719752D01*
X62773607Y-54726507D01*
X62769474Y-54729610D01*
X62769471Y-54729612D01*
X62609967Y-54849371D01*
X62594965Y-54860635D01*
X62529346Y-54929301D01*
X62470874Y-54990489D01*
X62440629Y-55022138D01*
X62437720Y-55026403D01*
X62437714Y-55026411D01*
X62400518Y-55080938D01*
X62314743Y-55206680D01*
X62286987Y-55266476D01*
X62223319Y-55403638D01*
X62220688Y-55409305D01*
X62160989Y-55624570D01*
X62137251Y-55846695D01*
X62137548Y-55851848D01*
X62137548Y-55851851D01*
X62143012Y-55946618D01*
X62150110Y-56069715D01*
X62151247Y-56074761D01*
X62151248Y-56074767D01*
X62169843Y-56157276D01*
X62199222Y-56287639D01*
X62248752Y-56409617D01*
X62276876Y-56478878D01*
X62283266Y-56494616D01*
X62322610Y-56558820D01*
X62397291Y-56680688D01*
X62399987Y-56685088D01*
X62546250Y-56853938D01*
X62718126Y-56996632D01*
X62788595Y-57037811D01*
X62791445Y-57039476D01*
X62840169Y-57091114D01*
X62853240Y-57160897D01*
X62826509Y-57226669D01*
X62786055Y-57260027D01*
X62783003Y-57261616D01*
X62773607Y-57266507D01*
X62769474Y-57269610D01*
X62769471Y-57269612D01*
X62599100Y-57397530D01*
X62594965Y-57400635D01*
X62529346Y-57469301D01*
X62470874Y-57530489D01*
X62440629Y-57562138D01*
X62437720Y-57566403D01*
X62437714Y-57566411D01*
X62401305Y-57619785D01*
X62314743Y-57746680D01*
X62288269Y-57803713D01*
X62223319Y-57943638D01*
X62220688Y-57949305D01*
X62160989Y-58164570D01*
X62137251Y-58386695D01*
X62137548Y-58391848D01*
X62137548Y-58391851D01*
X62143011Y-58486590D01*
X62150110Y-58609715D01*
X62151247Y-58614761D01*
X62151248Y-58614767D01*
X62151766Y-58617064D01*
X62199222Y-58827639D01*
X62283266Y-59034616D01*
X62334019Y-59117438D01*
X62397291Y-59220688D01*
X62399987Y-59225088D01*
X62546250Y-59393938D01*
X62718126Y-59536632D01*
X62788595Y-59577811D01*
X62791445Y-59579476D01*
X62840169Y-59631114D01*
X62853240Y-59700897D01*
X62826509Y-59766669D01*
X62786055Y-59800027D01*
X62783003Y-59801616D01*
X62773607Y-59806507D01*
X62769474Y-59809610D01*
X62769471Y-59809612D01*
X62662367Y-59890028D01*
X62594965Y-59940635D01*
X62529346Y-60009301D01*
X62470874Y-60070489D01*
X62440629Y-60102138D01*
X62437715Y-60106410D01*
X62437714Y-60106411D01*
X62400518Y-60160938D01*
X62314743Y-60286680D01*
X62298899Y-60320814D01*
X62223319Y-60483638D01*
X62220688Y-60489305D01*
X62160989Y-60704570D01*
X62137251Y-60926695D01*
X62137548Y-60931848D01*
X62137548Y-60931851D01*
X62149570Y-61140342D01*
X62150110Y-61149715D01*
X62151247Y-61154761D01*
X62151248Y-61154767D01*
X62161126Y-61198598D01*
X62199222Y-61367639D01*
X62283266Y-61574616D01*
X62399987Y-61765088D01*
X62546250Y-61933938D01*
X62718126Y-62076632D01*
X62788284Y-62117629D01*
X62791445Y-62119476D01*
X62840169Y-62171114D01*
X62853240Y-62240897D01*
X62826509Y-62306669D01*
X62786055Y-62340027D01*
X62783003Y-62341616D01*
X62773607Y-62346507D01*
X62769474Y-62349610D01*
X62769471Y-62349612D01*
X62616263Y-62464644D01*
X62594965Y-62480635D01*
X62529346Y-62549301D01*
X62470874Y-62610489D01*
X62440629Y-62642138D01*
X62437720Y-62646403D01*
X62437714Y-62646411D01*
X62400518Y-62700938D01*
X62314743Y-62826680D01*
X62285028Y-62890695D01*
X62223319Y-63023638D01*
X62220688Y-63029305D01*
X62160989Y-63244570D01*
X62137251Y-63466695D01*
X62137548Y-63471848D01*
X62137548Y-63471851D01*
X62143011Y-63566590D01*
X62150110Y-63689715D01*
X62151247Y-63694761D01*
X62151248Y-63694767D01*
X62169832Y-63777226D01*
X62199222Y-63907639D01*
X62283266Y-64114616D01*
X62334019Y-64197438D01*
X62397291Y-64300688D01*
X62399987Y-64305088D01*
X62546250Y-64473938D01*
X62718126Y-64616632D01*
X62788595Y-64657811D01*
X62791445Y-64659476D01*
X62840169Y-64711114D01*
X62853240Y-64780897D01*
X62826509Y-64846669D01*
X62786055Y-64880027D01*
X62783003Y-64881616D01*
X62773607Y-64886507D01*
X62769474Y-64889610D01*
X62769471Y-64889612D01*
X62662367Y-64970028D01*
X62594965Y-65020635D01*
X62536763Y-65081540D01*
X62470874Y-65150489D01*
X62440629Y-65182138D01*
X62437720Y-65186403D01*
X62437714Y-65186411D01*
X62400518Y-65240938D01*
X62314743Y-65366680D01*
X62299003Y-65400590D01*
X62223319Y-65563638D01*
X62220688Y-65569305D01*
X62160989Y-65784570D01*
X62137251Y-66006695D01*
X62137548Y-66011848D01*
X62137548Y-66011851D01*
X62143011Y-66106590D01*
X62150110Y-66229715D01*
X62151247Y-66234761D01*
X62151248Y-66234767D01*
X62151630Y-66236460D01*
X62199222Y-66447639D01*
X62283266Y-66654616D01*
X62334019Y-66737438D01*
X62397291Y-66840688D01*
X62399987Y-66845088D01*
X62546250Y-67013938D01*
X62718126Y-67156632D01*
X62780034Y-67192808D01*
X62791445Y-67199476D01*
X62840169Y-67251114D01*
X62853240Y-67320897D01*
X62826509Y-67386669D01*
X62786055Y-67420027D01*
X62783003Y-67421616D01*
X62773607Y-67426507D01*
X62769474Y-67429610D01*
X62769471Y-67429612D01*
X62662367Y-67510028D01*
X62594965Y-67560635D01*
X62529346Y-67629301D01*
X62470874Y-67690489D01*
X62440629Y-67722138D01*
X62437720Y-67726403D01*
X62437714Y-67726411D01*
X62400518Y-67780938D01*
X62314743Y-67906680D01*
X62299003Y-67940590D01*
X62223319Y-68103638D01*
X62220688Y-68109305D01*
X62160989Y-68324570D01*
X62137251Y-68546695D01*
X62137548Y-68551848D01*
X62137548Y-68551851D01*
X62144698Y-68675846D01*
X62150110Y-68769715D01*
X62151247Y-68774761D01*
X62151248Y-68774767D01*
X62171765Y-68865803D01*
X62199222Y-68987639D01*
X62283266Y-69194616D01*
X62334019Y-69277438D01*
X62397291Y-69380688D01*
X62399987Y-69385088D01*
X62546250Y-69553938D01*
X62718126Y-69696632D01*
X62779411Y-69732444D01*
X62791445Y-69739476D01*
X62840169Y-69791114D01*
X62853240Y-69860897D01*
X62826509Y-69926669D01*
X62786055Y-69960027D01*
X62783003Y-69961616D01*
X62773607Y-69966507D01*
X62769474Y-69969610D01*
X62769471Y-69969612D01*
X62662367Y-70050028D01*
X62594965Y-70100635D01*
X62529346Y-70169301D01*
X62470874Y-70230489D01*
X62440629Y-70262138D01*
X62437720Y-70266403D01*
X62437714Y-70266411D01*
X62400518Y-70320938D01*
X62314743Y-70446680D01*
X62299003Y-70480590D01*
X62223319Y-70643638D01*
X62220688Y-70649305D01*
X62160989Y-70864570D01*
X62137251Y-71086695D01*
X62137548Y-71091848D01*
X62137548Y-71091851D01*
X62143011Y-71186590D01*
X62150110Y-71309715D01*
X62151247Y-71314761D01*
X62151248Y-71314767D01*
X62170098Y-71398406D01*
X62199222Y-71527639D01*
X62283266Y-71734616D01*
X62334019Y-71817438D01*
X62397291Y-71920688D01*
X62399987Y-71925088D01*
X62546250Y-72093938D01*
X62718126Y-72236632D01*
X62788595Y-72277811D01*
X62791445Y-72279476D01*
X62840169Y-72331114D01*
X62853240Y-72400897D01*
X62826509Y-72466669D01*
X62786055Y-72500027D01*
X62783003Y-72501616D01*
X62773607Y-72506507D01*
X62769474Y-72509610D01*
X62769471Y-72509612D01*
X62662367Y-72590028D01*
X62594965Y-72640635D01*
X62529346Y-72709301D01*
X62470874Y-72770489D01*
X62440629Y-72802138D01*
X62437720Y-72806403D01*
X62437714Y-72806411D01*
X62400518Y-72860938D01*
X62314743Y-72986680D01*
X62299003Y-73020590D01*
X62235377Y-73157661D01*
X62220688Y-73189305D01*
X62160989Y-73404570D01*
X62137251Y-73626695D01*
X60508500Y-73626695D01*
X60508500Y-50766695D01*
X62137251Y-50766695D01*
X62137548Y-50771848D01*
X62137548Y-50771851D01*
X62143011Y-50866590D01*
X62150110Y-50989715D01*
X62151247Y-50994761D01*
X62151248Y-50994767D01*
X62170098Y-51078406D01*
X62199222Y-51207639D01*
X62283266Y-51414616D01*
X62334019Y-51497438D01*
X62397291Y-51600688D01*
X62399987Y-51605088D01*
X62546250Y-51773938D01*
X62718126Y-51916632D01*
X62779411Y-51952444D01*
X62791955Y-51959774D01*
X62840679Y-52011412D01*
X62853750Y-52081195D01*
X62827019Y-52146967D01*
X62786562Y-52180327D01*
X62778457Y-52184546D01*
X62769738Y-52190036D01*
X62599433Y-52317905D01*
X62591726Y-52324748D01*
X62444590Y-52478717D01*
X62438104Y-52486727D01*
X62318098Y-52662649D01*
X62313000Y-52671623D01*
X62223338Y-52864783D01*
X62219775Y-52874470D01*
X62164389Y-53074183D01*
X62165912Y-53082607D01*
X62178292Y-53086000D01*
X67358344Y-53086000D01*
X67371875Y-53082027D01*
X67373180Y-53072947D01*
X67331214Y-52905875D01*
X67327894Y-52896124D01*
X67242972Y-52700814D01*
X67238105Y-52691739D01*
X67122426Y-52512926D01*
X67116136Y-52504757D01*
X66972806Y-52347240D01*
X66965273Y-52340215D01*
X66798139Y-52208222D01*
X66789556Y-52202520D01*
X66752602Y-52182120D01*
X66702631Y-52131687D01*
X66687859Y-52062245D01*
X66712975Y-51995839D01*
X66740327Y-51969232D01*
X66771886Y-51946721D01*
X66919860Y-51841173D01*
X66925966Y-51835089D01*
X67074435Y-51687137D01*
X67078096Y-51683489D01*
X67084724Y-51674266D01*
X67205435Y-51506277D01*
X67208453Y-51502077D01*
X67229320Y-51459857D01*
X67305136Y-51306453D01*
X67305137Y-51306451D01*
X67307430Y-51301811D01*
X67372370Y-51088069D01*
X67401529Y-50866590D01*
X67403156Y-50800000D01*
X67384852Y-50577361D01*
X67330431Y-50360702D01*
X67241354Y-50155840D01*
X67120014Y-49968277D01*
X66969670Y-49803051D01*
X66965619Y-49799852D01*
X66965615Y-49799848D01*
X66798414Y-49667800D01*
X66798410Y-49667798D01*
X66794359Y-49664598D01*
X66753053Y-49641796D01*
X66703084Y-49591364D01*
X66688312Y-49521921D01*
X66713428Y-49455516D01*
X66740780Y-49428909D01*
X66784603Y-49397650D01*
X66919860Y-49301173D01*
X66936313Y-49284778D01*
X67074435Y-49147137D01*
X67078096Y-49143489D01*
X67137594Y-49060689D01*
X67205435Y-48966277D01*
X67208453Y-48962077D01*
X67229320Y-48919857D01*
X67305136Y-48766453D01*
X67305137Y-48766451D01*
X67307430Y-48761811D01*
X67309534Y-48754885D01*
X94084000Y-48754885D01*
X94088475Y-48770124D01*
X94089865Y-48771329D01*
X94097548Y-48773000D01*
X95169885Y-48773000D01*
X95185124Y-48768525D01*
X95186329Y-48767135D01*
X95188000Y-48759452D01*
X95188000Y-48754885D01*
X95696000Y-48754885D01*
X95700475Y-48770124D01*
X95701865Y-48771329D01*
X95709548Y-48773000D01*
X97709885Y-48773000D01*
X97725124Y-48768525D01*
X97726329Y-48767135D01*
X97728000Y-48759452D01*
X97728000Y-48754885D01*
X98236000Y-48754885D01*
X98240475Y-48770124D01*
X98241865Y-48771329D01*
X98249548Y-48773000D01*
X99300344Y-48773000D01*
X99313875Y-48769027D01*
X99315180Y-48759947D01*
X99313909Y-48754885D01*
X104498000Y-48754885D01*
X104502475Y-48770124D01*
X104503865Y-48771329D01*
X104511548Y-48773000D01*
X105583885Y-48773000D01*
X105599124Y-48768525D01*
X105600329Y-48767135D01*
X105602000Y-48759452D01*
X105602000Y-48754885D01*
X106110000Y-48754885D01*
X106114475Y-48770124D01*
X106115865Y-48771329D01*
X106123548Y-48773000D01*
X108123885Y-48773000D01*
X108139124Y-48768525D01*
X108140329Y-48767135D01*
X108142000Y-48759452D01*
X108142000Y-48754885D01*
X108650000Y-48754885D01*
X108654475Y-48770124D01*
X108655865Y-48771329D01*
X108663548Y-48773000D01*
X109714344Y-48773000D01*
X109727875Y-48769027D01*
X109729180Y-48759947D01*
X109687214Y-48592875D01*
X109683894Y-48583124D01*
X109598972Y-48387814D01*
X109594105Y-48378739D01*
X109478426Y-48199926D01*
X109472136Y-48191757D01*
X109328806Y-48034240D01*
X109321273Y-48027215D01*
X109154139Y-47895222D01*
X109145552Y-47889517D01*
X108959117Y-47786599D01*
X108949705Y-47782369D01*
X108748959Y-47711280D01*
X108738988Y-47708646D01*
X108667837Y-47695972D01*
X108654540Y-47697432D01*
X108650000Y-47711989D01*
X108650000Y-48754885D01*
X108142000Y-48754885D01*
X108142000Y-47710102D01*
X108138082Y-47696758D01*
X108123806Y-47694771D01*
X108085324Y-47700660D01*
X108075288Y-47703051D01*
X107872868Y-47769212D01*
X107863359Y-47773209D01*
X107674463Y-47871542D01*
X107665738Y-47877036D01*
X107495433Y-48004905D01*
X107487726Y-48011748D01*
X107410094Y-48092985D01*
X107348570Y-48128415D01*
X107277657Y-48124958D01*
X107219871Y-48083712D01*
X107201018Y-48050164D01*
X107159324Y-47938946D01*
X107150786Y-47923351D01*
X107074285Y-47821276D01*
X107061724Y-47808715D01*
X106959649Y-47732214D01*
X106944054Y-47723676D01*
X106823606Y-47678522D01*
X106808351Y-47674895D01*
X106757486Y-47669369D01*
X106750672Y-47669000D01*
X106128115Y-47669000D01*
X106112876Y-47673475D01*
X106111671Y-47674865D01*
X106110000Y-47682548D01*
X106110000Y-48754885D01*
X105602000Y-48754885D01*
X105602000Y-47687116D01*
X105597525Y-47671877D01*
X105596135Y-47670672D01*
X105588452Y-47669001D01*
X104961331Y-47669001D01*
X104954510Y-47669371D01*
X104903648Y-47674895D01*
X104888396Y-47678521D01*
X104767946Y-47723676D01*
X104752351Y-47732214D01*
X104650276Y-47808715D01*
X104637715Y-47821276D01*
X104561214Y-47923351D01*
X104552676Y-47938946D01*
X104507522Y-48059394D01*
X104503895Y-48074649D01*
X104498369Y-48125514D01*
X104498000Y-48132328D01*
X104498000Y-48754885D01*
X99313909Y-48754885D01*
X99273214Y-48592875D01*
X99269894Y-48583124D01*
X99184972Y-48387814D01*
X99180105Y-48378739D01*
X99064426Y-48199926D01*
X99058136Y-48191757D01*
X98914806Y-48034240D01*
X98907273Y-48027215D01*
X98740139Y-47895222D01*
X98731552Y-47889517D01*
X98545117Y-47786599D01*
X98535705Y-47782369D01*
X98334959Y-47711280D01*
X98324988Y-47708646D01*
X98253837Y-47695972D01*
X98240540Y-47697432D01*
X98236000Y-47711989D01*
X98236000Y-48754885D01*
X97728000Y-48754885D01*
X97728000Y-47710102D01*
X97724082Y-47696758D01*
X97709806Y-47694771D01*
X97671324Y-47700660D01*
X97661288Y-47703051D01*
X97458868Y-47769212D01*
X97449359Y-47773209D01*
X97260463Y-47871542D01*
X97251738Y-47877036D01*
X97081433Y-48004905D01*
X97073726Y-48011748D01*
X96996094Y-48092985D01*
X96934570Y-48128415D01*
X96863657Y-48124958D01*
X96805871Y-48083712D01*
X96787018Y-48050164D01*
X96745324Y-47938946D01*
X96736786Y-47923351D01*
X96660285Y-47821276D01*
X96647724Y-47808715D01*
X96545649Y-47732214D01*
X96530054Y-47723676D01*
X96409606Y-47678522D01*
X96394351Y-47674895D01*
X96343486Y-47669369D01*
X96336672Y-47669000D01*
X95714115Y-47669000D01*
X95698876Y-47673475D01*
X95697671Y-47674865D01*
X95696000Y-47682548D01*
X95696000Y-48754885D01*
X95188000Y-48754885D01*
X95188000Y-47687116D01*
X95183525Y-47671877D01*
X95182135Y-47670672D01*
X95174452Y-47669001D01*
X94547331Y-47669001D01*
X94540510Y-47669371D01*
X94489648Y-47674895D01*
X94474396Y-47678521D01*
X94353946Y-47723676D01*
X94338351Y-47732214D01*
X94236276Y-47808715D01*
X94223715Y-47821276D01*
X94147214Y-47923351D01*
X94138676Y-47938946D01*
X94093522Y-48059394D01*
X94089895Y-48074649D01*
X94084369Y-48125514D01*
X94084000Y-48132328D01*
X94084000Y-48754885D01*
X67309534Y-48754885D01*
X67358757Y-48592875D01*
X67370865Y-48553023D01*
X67370865Y-48553021D01*
X67372370Y-48548069D01*
X67401529Y-48326590D01*
X67402139Y-48301621D01*
X67403074Y-48263365D01*
X67403074Y-48263361D01*
X67403156Y-48260000D01*
X67384852Y-48037361D01*
X67330431Y-47820702D01*
X67241354Y-47615840D01*
X67120014Y-47428277D01*
X66969670Y-47263051D01*
X66965619Y-47259852D01*
X66965615Y-47259848D01*
X66798414Y-47127800D01*
X66798410Y-47127798D01*
X66794359Y-47124598D01*
X66753053Y-47101796D01*
X66703084Y-47051364D01*
X66688312Y-46981921D01*
X66713428Y-46915516D01*
X66740780Y-46888909D01*
X66784603Y-46857650D01*
X66919860Y-46761173D01*
X66928293Y-46752770D01*
X67074435Y-46607137D01*
X67078096Y-46603489D01*
X67137594Y-46520689D01*
X67205435Y-46426277D01*
X67208453Y-46422077D01*
X67229320Y-46379857D01*
X67305136Y-46226453D01*
X67305137Y-46226451D01*
X67307430Y-46221811D01*
X67372370Y-46008069D01*
X67401529Y-45786590D01*
X67401713Y-45779056D01*
X67403074Y-45723365D01*
X67403074Y-45723361D01*
X67403156Y-45720000D01*
X67384852Y-45497361D01*
X67330431Y-45280702D01*
X67241354Y-45075840D01*
X67120014Y-44888277D01*
X66969670Y-44723051D01*
X66965619Y-44719852D01*
X66965615Y-44719848D01*
X66798414Y-44587800D01*
X66798410Y-44587798D01*
X66794359Y-44584598D01*
X66753053Y-44561796D01*
X66703084Y-44511364D01*
X66688312Y-44441921D01*
X66713428Y-44375516D01*
X66740780Y-44348909D01*
X66784603Y-44317650D01*
X66919860Y-44221173D01*
X67078096Y-44063489D01*
X67137594Y-43980689D01*
X67205435Y-43886277D01*
X67208453Y-43882077D01*
X67229320Y-43839857D01*
X67305136Y-43686453D01*
X67305137Y-43686451D01*
X67307430Y-43681811D01*
X67372370Y-43468069D01*
X67401529Y-43246590D01*
X67401611Y-43243240D01*
X67403074Y-43183365D01*
X67403074Y-43183361D01*
X67403156Y-43180000D01*
X67384852Y-42957361D01*
X67330431Y-42740702D01*
X67241354Y-42535840D01*
X67120014Y-42348277D01*
X66969670Y-42183051D01*
X66965619Y-42179852D01*
X66965615Y-42179848D01*
X66798414Y-42047800D01*
X66798410Y-42047798D01*
X66794359Y-42044598D01*
X66598789Y-41936638D01*
X66593920Y-41934914D01*
X66593916Y-41934912D01*
X66393087Y-41863795D01*
X66393083Y-41863794D01*
X66388212Y-41862069D01*
X66383119Y-41861162D01*
X66383116Y-41861161D01*
X66173373Y-41823800D01*
X66173367Y-41823799D01*
X66168284Y-41822894D01*
X66094452Y-41821992D01*
X65950081Y-41820228D01*
X65950079Y-41820228D01*
X65944911Y-41820165D01*
X65724091Y-41853955D01*
X65511756Y-41923357D01*
X65313607Y-42026507D01*
X65309474Y-42029610D01*
X65309471Y-42029612D01*
X65285247Y-42047800D01*
X65134965Y-42160635D01*
X64980629Y-42322138D01*
X64873201Y-42479621D01*
X64818293Y-42524621D01*
X64747768Y-42532792D01*
X64684021Y-42501538D01*
X64663324Y-42477054D01*
X64582822Y-42352617D01*
X64582820Y-42352614D01*
X64580014Y-42348277D01*
X64429670Y-42183051D01*
X64425619Y-42179852D01*
X64425615Y-42179848D01*
X64258414Y-42047800D01*
X64258410Y-42047798D01*
X64254359Y-42044598D01*
X64058789Y-41936638D01*
X64053920Y-41934914D01*
X64053916Y-41934912D01*
X63853087Y-41863795D01*
X63853083Y-41863794D01*
X63848212Y-41862069D01*
X63843119Y-41861162D01*
X63843116Y-41861161D01*
X63633373Y-41823800D01*
X63633367Y-41823799D01*
X63628284Y-41822894D01*
X63554452Y-41821992D01*
X63410081Y-41820228D01*
X63410079Y-41820228D01*
X63404911Y-41820165D01*
X63184091Y-41853955D01*
X62971756Y-41923357D01*
X62773607Y-42026507D01*
X62769474Y-42029610D01*
X62769471Y-42029612D01*
X62745247Y-42047800D01*
X62594965Y-42160635D01*
X62440629Y-42322138D01*
X62314743Y-42506680D01*
X62220688Y-42709305D01*
X62160989Y-42924570D01*
X62137251Y-43146695D01*
X62137548Y-43151848D01*
X62137548Y-43151851D01*
X62143011Y-43246590D01*
X62150110Y-43369715D01*
X62151247Y-43374761D01*
X62151248Y-43374767D01*
X62171119Y-43462939D01*
X62199222Y-43587639D01*
X62283266Y-43794616D01*
X62334019Y-43877438D01*
X62397291Y-43980688D01*
X62399987Y-43985088D01*
X62546250Y-44153938D01*
X62718126Y-44296632D01*
X62788595Y-44337811D01*
X62791445Y-44339476D01*
X62840169Y-44391114D01*
X62853240Y-44460897D01*
X62826509Y-44526669D01*
X62786055Y-44560027D01*
X62773607Y-44566507D01*
X62769474Y-44569610D01*
X62769471Y-44569612D01*
X62745247Y-44587800D01*
X62594965Y-44700635D01*
X62440629Y-44862138D01*
X62314743Y-45046680D01*
X62220688Y-45249305D01*
X62160989Y-45464570D01*
X62137251Y-45686695D01*
X62137548Y-45691848D01*
X62137548Y-45691851D01*
X62143011Y-45786590D01*
X62150110Y-45909715D01*
X62151247Y-45914761D01*
X62151248Y-45914767D01*
X62171119Y-46002939D01*
X62199222Y-46127639D01*
X62283266Y-46334616D01*
X62334019Y-46417438D01*
X62397291Y-46520688D01*
X62399987Y-46525088D01*
X62546250Y-46693938D01*
X62718126Y-46836632D01*
X62788595Y-46877811D01*
X62791445Y-46879476D01*
X62840169Y-46931114D01*
X62853240Y-47000897D01*
X62826509Y-47066669D01*
X62786055Y-47100027D01*
X62773607Y-47106507D01*
X62769474Y-47109610D01*
X62769471Y-47109612D01*
X62745247Y-47127800D01*
X62594965Y-47240635D01*
X62440629Y-47402138D01*
X62314743Y-47586680D01*
X62276531Y-47669001D01*
X62223908Y-47782369D01*
X62220688Y-47789305D01*
X62160989Y-48004570D01*
X62137251Y-48226695D01*
X62137548Y-48231848D01*
X62137548Y-48231851D01*
X62143011Y-48326590D01*
X62150110Y-48449715D01*
X62151247Y-48454761D01*
X62151248Y-48454767D01*
X62171119Y-48542939D01*
X62199222Y-48667639D01*
X62283266Y-48874616D01*
X62334019Y-48957438D01*
X62397291Y-49060688D01*
X62399987Y-49065088D01*
X62546250Y-49233938D01*
X62718126Y-49376632D01*
X62788595Y-49417811D01*
X62791445Y-49419476D01*
X62840169Y-49471114D01*
X62853240Y-49540897D01*
X62826509Y-49606669D01*
X62786055Y-49640027D01*
X62773607Y-49646507D01*
X62769474Y-49649610D01*
X62769471Y-49649612D01*
X62745247Y-49667800D01*
X62594965Y-49780635D01*
X62440629Y-49942138D01*
X62314743Y-50126680D01*
X62282733Y-50195641D01*
X62223319Y-50323638D01*
X62220688Y-50329305D01*
X62160989Y-50544570D01*
X62137251Y-50766695D01*
X60508500Y-50766695D01*
X60508500Y-41274500D01*
X60528502Y-41206379D01*
X60582158Y-41159886D01*
X60634500Y-41148500D01*
X104090633Y-41148500D01*
X104110018Y-41150000D01*
G37*
%TD.AperFunction*%
%TD*%
M02*
